[
    [0, 2],
    [143, 150],
    [279, 283],
    [364, 366],
    [84, 86],
    [296, 298],
    [339, 342],
    [242, 245],
    [318, 321],
    [204, 207],
    [185, 187],
    [155, 158],
    [222, 225],
    [309, 310],
    [281, 288],
    [90, 93],
    [7, 10],
    [357, 363],
    [145, 149],
    [117, 120],
    [133, 138],
    [7, 9],
    [102, 105],
    [121, 124],
    [286, 291],
    [102, 104],
    [126, 128],
    [101, 106],
    [19, 24],
    [344, 351],
    [3, 4],
    [80, 82],
    [22, 24],
    [267, 274],
    [81, 82],
    [130, 137],
    [291, 297],
    [235, 241],
    [15, 22],
    [285, 289],
    [153, 158],
    [48, 55],
    [305, 306],
    [241, 242],
    [203, 206],
    [238, 240],
    [264, 267],
    [240, 243],
    [17, 21],
    [261, 265],
    [125, 128],
    [318, 320],
    [307, 313],
    [350, 352],
    [95, 102],
    [75, 78],
    [284, 285],
    [264, 267],
    [273, 279],
    [274, 280],
    [329, 334],
    [15, 18],
    [319, 325],
    [82, 88],
    [46, 49],
    [354, 361],
    [350, 353],
    [364, 365],
    [305, 310],
    [54, 57],
    [70, 73],
    [288, 294],
    [47, 50],
    [28, 31],
    [127, 134],
    [107, 114],
    [138, 145],
    [143, 146],
    [293, 295],
    [134, 136],
    [124, 131],
    [236, 239],
    [210, 211],
    [171, 174],
    [32, 33],
    [96, 98],
    [33, 39],
    [160, 164],
    [119, 122],
    [148, 155],
    [178, 180],
    [92, 98],
    [337, 339],
    [296, 299],
    [179, 181],
    [322, 324],
    [301, 304],
    [249, 252],
    [328, 334],
    [207, 209],
    [182, 186],
    [42, 46],
    [87, 92],
    [16, 22],
    [346, 353],
    [109, 115],
    [165, 166],
    [297, 304],
    [78, 80],
    [280, 285],
    [126, 127],
    [3, 6],
    [281, 284],
    [119, 122],
    [228, 232],
    [182, 183],
    [89, 92],
    [250, 253],
    [271, 278],
    [360, 363],
    [11, 13],
    [121, 128],
    [360, 362],
    [263, 265],
    [184, 185],
    [87, 90],
    [54, 57],
    [79, 81],
    [176, 181],
    [343, 349],
    [207, 214],
    [110, 114],
    [110, 112],
    [315, 317],
    [166, 169],
    [136, 142],
    [62, 66],
    [20, 24],
    [318, 324],
    [160, 163],
    [204, 205],
    [294, 296],
    [294, 297],
    [2, 8],
    [342, 345],
    [335, 336],
    [238, 245],
    [239, 240],
    [348, 354],
    [70, 76],
    [266, 272],
    [290, 294],
    [56, 63],
    [239, 241],
    [127, 129],
    [355, 356],
    [155, 161],
    [304, 308],
    [167, 170],
    [8, 13],
    [249, 255],
    [364, 367],
    [165, 167],
    [330, 333],
    [288, 291],
    [31, 34],
    [286, 291],
    [28, 29],
    [109, 110],
    [56, 63],
    [205, 208],
    [321, 324],
    [183, 185],
    [85, 89],
    [67, 70],
    [328, 330],
    [217, 218],
    [168, 174],
    [160, 165],
    [333, 337],
    [30, 37],
    [116, 119],
    [136, 139],
    [157, 160],
    [307, 313],
    [10, 16],
    [70, 73],
    [124, 125],
    [49, 54],
    [353, 359],
    [19, 25],
    [121, 124],
    [109, 112],
    [38, 40],
    [7, 8],
    [335, 338],
    [312, 315],
    [313, 315],
    [175, 177],
    [194, 197],
    [206, 210],
    [194, 197],
    [343, 346],
    [273, 280],
    [352, 357],
    [139, 142],
    [323, 328],
    [214, 217],
    [327, 333],
    [278, 284],
    [331, 338],
    [298, 305],
    [91, 94],
    [75, 77],
    [330, 333],
    [228, 232],
    [40, 42],
    [120, 123],
    [78, 81],
    [42, 47],
    [102, 106],
    [350, 352],
    [208, 210],
    [231, 236],
    [196, 202],
    [147, 154],
    [178, 182],
    [14, 16],
    [152, 159],
    [167, 173],
    [356, 361],
    [194, 197],
    [228, 231],
    [324, 330],
    [31, 32],
    [235, 239],
    [177, 183],
    [358, 362],
    [4, 6],
    [176, 181],
    [173, 180],
    [130, 134],
    [216, 223],
    [151, 157],
    [169, 172],
    [107, 110],
    [101, 107],
    [219, 222],
    [9, 12],
    [148, 150],
    [227, 229],
    [88, 91],
    [63, 65],
    [341, 343],
    [185, 191],
    [264, 267],
    [89, 91],
    [241, 247],
    [198, 202],
    [306, 312],
    [339, 344],
    [334, 339],
    [81, 83],
    [48, 50],
    [285, 292],
    [140, 141],
    [122, 125],
    [68, 71],
    [320, 322],
    [50, 57],
    [324, 327],
    [187, 193],
    [198, 199],
    [164, 171],
    [58, 61],
    [53, 55],
    [204, 206],
    [179, 186],
    [346, 351],
    [314, 317],
    [72, 76],
    [327, 330],
    [342, 345],
    [306, 307],
    [153, 155],
    [175, 178],
    [264, 269],
    [190, 193],
    [159, 160],
    [64, 66],
    [308, 311],
    [199, 203],
    [128, 130],
    [52, 58],
    [124, 127],
    [260, 261],
    [21, 22],
    [266, 268],
    [8, 15],
    [84, 91],
    [338, 340],
    [87, 92],
    [240, 243],
    [208, 214],
    [143, 146],
    [101, 103],
    [185, 187],
    [70, 71],
    [252, 254],
    [184, 186],
    [136, 137],
    [136, 138],
    [45, 48],
    [88, 91],
    [24, 29],
    [146, 149],
    [38, 41],
    [59, 62],
    [236, 242],
    [257, 259],
    [347, 354],
    [39, 45],
    [170, 177],
    [235, 240],
    [159, 162],
    [120, 123],
    [68, 75],
    [351, 354],
    [120, 123],
    [218, 219],
    [20, 25],
    [179, 182],
    [3, 5],
    [37, 41],
    [92, 99],
    [238, 240],
    [310, 313],
    [283, 288],
    [290, 291],
    [127, 128],
    [44, 47],
    [5, 7],
    [363, 369],
    [283, 284],
    [359, 365],
    [34, 36],
    [49, 51],
    [63, 65],
    [313, 316],
    [301, 305],
    [70, 72],
    [110, 116],
    [348, 349],
    [304, 305],
    [3, 5],
    [256, 261],
    [274, 280],
    [115, 121],
    [296, 303],
    [7, 8],
    [181, 183],
    [183, 187],
    [363, 365],
    [34, 37],
    [170, 173],
    [205, 212],
    [237, 244],
    [354, 356],
    [255, 257],
    [64, 67],
    [59, 61],
    [104, 105],
    [342, 345],
    [300, 307],
    [338, 342],
    [319, 321],
    [16, 23],
    [234, 236],
    [188, 191],
    [89, 96],
    [38, 41],
    [223, 225],
    [198, 199],
    [262, 266],
    [210, 213],
    [218, 220],
    [218, 221],
    [194, 197],
    [325, 326],
    [7, 14],
    [327, 330],
    [357, 364],
    [179, 185],
    [354, 357],
    [28, 33],
    [233, 235],
    [94, 96],
    [326, 328],
    [290, 292],
    [346, 347],
    [232, 238],
    [103, 108],
    [165, 167],
    [210, 212],
    [127, 130],
    [308, 309],
    [105, 108],
    [353, 357],
    [145, 150],
    [174, 178],
    [109, 116],
    [249, 255],
    [63, 68],
    [91, 93],
    [355, 361],
    [222, 228],
    [227, 228],
    [339, 341],
    [222, 228],
    [281, 288],
    [187, 193],
    [145, 152],
    [120, 122],
    [278, 285],
    [93, 96],
    [309, 315],
    [162, 166],
    [65, 68],
    [82, 88],
    [319, 326],
    [233, 234],
    [224, 230],
    [178, 180],
    [339, 345],
    [42, 49],
    [158, 160],
    [244, 248],
    [51, 56],
    [132, 138],
    [62, 65],
    [3, 6],
    [345, 346],
    [91, 93],
    [353, 354],
    [229, 231],
    [112, 114],
    [251, 254],
    [278, 284],
    [214, 221],
    [1, 4],
    [240, 242],
    [84, 86],
    [185, 188],
    [32, 36],
    [300, 307],
    [347, 349],
    [91, 95],
    [75, 79],
    [128, 130],
    [153, 154],
    [352, 356],
    [278, 284],
    [106, 109],
    [68, 71],
    [114, 120],
    [281, 288],
    [251, 253],
    [62, 65],
    [217, 220],
    [300, 302],
    [22, 27],
    [7, 12],
    [187, 194],
    [217, 224],
    [212, 214],
    [139, 145],
    [37, 38],
    [243, 246],
    [237, 243],
    [81, 82],
    [220, 223],
    [98, 100],
    [202, 203],
    [182, 186],
    [273, 275],
    [191, 195],
    [94, 100],
    [253, 257],
    [328, 335],
    [91, 94],
    [104, 106],
    [135, 137],
    [111, 114],
    [342, 345],
    [225, 227],
    [265, 271],
    [101, 103],
    [126, 128],
    [212, 214],
    [53, 58],
    [178, 180],
    [211, 215],
    [63, 66],
    [104, 111],
    [7, 10],
    [324, 327],
    [357, 359],
    [199, 202],
    [190, 196],
    [156, 162],
    [105, 108],
    [3, 10],
    [195, 202],
    [294, 296],
    [160, 165],
    [86, 92],
    [16, 23],
    [66, 71],
    [169, 172],
    [146, 149],
    [6, 7],
    [123, 126],
    [142, 145],
    [348, 350],
    [222, 229],
    [329, 331],
    [158, 159],
    [55, 57],
    [361, 362],
    [171, 172],
    [235, 241],
    [221, 227],
    [270, 277],
    [171, 178],
    [344, 346],
    [20, 22],
    [361, 366],
    [12, 15],
    [246, 248],
    [73, 76],
    [266, 267],
    [150, 152],
    [66, 72],
    [294, 300],
    [259, 262],
    [73, 75],
    [246, 247],
    [99, 102],
    [269, 271],
    [209, 210],
    [159, 161],
    [55, 58],
    [13, 20],
    [280, 283],
    [96, 97],
    [243, 246],
    [234, 236],
    [28, 35],
    [7, 12],
    [194, 200],
    [14, 16],
    [183, 186],
    [8, 13],
    [270, 273],
    [123, 126],
    [343, 346],
    [285, 288],
    [26, 28],
    [78, 80],
    [127, 130],
    [141, 144],
    [155, 156],
    [43, 49],
    [138, 139],
    [325, 331],
    [168, 170],
    [2, 5],
    [205, 209],
    [74, 79],
    [159, 165],
    [213, 215],
    [166, 168],
    [242, 244],
    [7, 8],
    [194, 201],
    [175, 181],
    [282, 284],
    [50, 53],
    [138, 144],
    [266, 272],
    [264, 268],
    [299, 302],
    [176, 181],
    [362, 368],
    [163, 169],
    [25, 32],
    [33, 35],
    [289, 291],
    [301, 304],
    [274, 276],
    [127, 133],
    [189, 195],
    [336, 339],
    [361, 362],
    [255, 258],
    [165, 171],
    [216, 222],
    [124, 126],
    [359, 362],
    [218, 222],
    [91, 98],
    [21, 24],
    [96, 99],
    [257, 258],
    [307, 314],
    [256, 259],
    [315, 318],
    [199, 201],
    [73, 77],
    [364, 366],
    [265, 272],
    [319, 321],
    [257, 258],
    [93, 95],
    [178, 181],
    [311, 314],
    [36, 39],
    [287, 290],
    [284, 290],
    [191, 197],
    [89, 93],
    [189, 192],
    [296, 299],
    [75, 76],
    [269, 273],
    [290, 293],
    [308, 309],
    [182, 185],
    [98, 102],
    [50, 57],
    [148, 150],
    [2, 8],
    [84, 87],
    [6, 8],
    [139, 140],
    [260, 261],
    [164, 165],
    [265, 271],
    [65, 71],
    [191, 198],
    [321, 324],
    [352, 354],
    [81, 82],
    [80, 82],
    [276, 279],
    [156, 159],
    [148, 149],
    [178, 181],
    [220, 222],
    [43, 47],
    [230, 232],
    [81, 83],
    [37, 38],
    [226, 228],
    [70, 76],
    [338, 339],
    [203, 210],
    [26, 29],
    [279, 280],
    [104, 110],
    [339, 341],
    [196, 198],
    [345, 346],
    [162, 163],
    [37, 40],
    [116, 117],
    [344, 346],
    [58, 61],
    [314, 315],
    [42, 49],
    [74, 77],
    [237, 240],
    [100, 107],
    [59, 62],
    [355, 358],
    [252, 258],
    [323, 326],
    [116, 119],
    [274, 275],
    [232, 238],
    [190, 193],
    [212, 218],
    [219, 222],
    [357, 358],
    [171, 174],
    [153, 154],
    [121, 123],
    [68, 70],
    [364, 367],
    [327, 330],
    [107, 109],
    [263, 266],
    [268, 273],
    [311, 312],
    [160, 166],
    [258, 265],
    [293, 295],
    [25, 28],
    [145, 148],
    [325, 331],
    [363, 368],
    [330, 335],
    [158, 161],
    [323, 326],
    [239, 243],
    [292, 294],
    [198, 204],
    [310, 312],
    [276, 278],
    [37, 44],
    [360, 366],
    [202, 205],
    [12, 16],
    [32, 33],
    [98, 105],
    [114, 120],
    [236, 243],
    [198, 200],
    [194, 197],
    [132, 134],
    [2, 7],
    [26, 28],
    [20, 22],
    [327, 330],
    [32, 39],
    [246, 251],
    [132, 134],
    [230, 232],
    [113, 119],
    [106, 109],
    [32, 35],
    [294, 300],
    [122, 124],
    [332, 338],
    [37, 44],
    [214, 216],
    [266, 268],
    [291, 292],
    [309, 316],
    [164, 167],
    [49, 52],
    [7, 14],
    [268, 270],
    [106, 112],
    [111, 117],
    [87, 89],
    [292, 294],
    [328, 330],
    [118, 119],
    [257, 261],
    [62, 63],
    [158, 160],
    [148, 151],
    [231, 233],
    [130, 136],
    [41, 42],
    [223, 226],
    [220, 225],
    [256, 262],
    [270, 275],
    [197, 200],
    [59, 61],
    [342, 344],
    [144, 145],
    [27, 29],
    [247, 250],
    [327, 330],
    [125, 128],
    [265, 270],
    [34, 35],
    [63, 65],
    [253, 254],
    [111, 117],
    [101, 102],
    [334, 337],
    [71, 74],
    [111, 114],
    [143, 147],
    [98, 102],
    [280, 281],
    [115, 116],
    [297, 299],
    [166, 169],
    [228, 231],
    [86, 93],
    [43, 46],
    [344, 349],
    [243, 250],
    [177, 179],
    [179, 185],
    [135, 136],
    [189, 191],
    [249, 255],
    [195, 201],
    [85, 92],
    [331, 335],
    [63, 68],
    [150, 152],
    [205, 208],
    [202, 203],
    [348, 354],
    [108, 111],
    [328, 335],
    [319, 322],
    [5, 11],
    [362, 365],
    [140, 145],
    [89, 91],
    [80, 83],
    [72, 73],
    [330, 336],
    [266, 272],
    [250, 252],
    [296, 298],
    [48, 54],
    [288, 290],
    [240, 242],
    [360, 362],
    [28, 30],
    [69, 71],
    [248, 255],
    [160, 162],
    [345, 350],
    [298, 300],
    [21, 24],
    [333, 336],
    [334, 336],
    [3, 8],
    [236, 239],
    [80, 86],
    [323, 329],
    [212, 214],
    [261, 262],
    [248, 249],
    [339, 346],
    [206, 213],
    [2, 4],
    [209, 215],
    [166, 172],
    [314, 316],
    [197, 199],
    [65, 70],
    [227, 230],
    [244, 246],
    [192, 198],
    [62, 68],
    [305, 306],
    [256, 259],
    [214, 216],
    [196, 199],
    [358, 360],
    [201, 204],
    [61, 65],
    [8, 15],
    [134, 137],
    [25, 32],
    [124, 128],
    [316, 319],
    [149, 154],
    [10, 17],
    [245, 252],
    [86, 88],
    [90, 92],
    [335, 341],
    [119, 121],
    [298, 304],
    [254, 259],
    [87, 90],
    [272, 274],
    [157, 159],
    [32, 35],
    [1, 5],
    [140, 142],
    [28, 30],
    [264, 265],
    [212, 219],
    [175, 178],
    [86, 90],
    [262, 265],
    [118, 123],
    [8, 11],
    [151, 153],
    [128, 129],
    [114, 116],
    [31, 33],
    [199, 201],
    [255, 258],
    [329, 335],
    [27, 28],
    [292, 294],
    [264, 267],
    [151, 155],
    [14, 15],
    [327, 334],
    [325, 328],
    [88, 92],
    [10, 15],
    [13, 16],
    [63, 66],
    [342, 346],
    [77, 79],
    [46, 52],
    [56, 57],
    [247, 248],
    [175, 181],
    [93, 97],
    [309, 312],
    [336, 338],
    [255, 262],
    [45, 50],
    [29, 31],
    [50, 57],
    [9, 14],
    [250, 257],
    [207, 213],
    [86, 92],
    [181, 184],
    [223, 229],
    [130, 134],
    [65, 68],
    [254, 257],
    [290, 293],
    [174, 177],
    [240, 242],
    [259, 264],
    [326, 327],
    [98, 101],
    [79, 84],
    [139, 143],
    [14, 16],
    [105, 108],
    [31, 33],
    [344, 350],
    [315, 317],
    [270, 277],
    [230, 234],
    [115, 119],
    [328, 331],
    [91, 94],
    [171, 175],
    [95, 97],
    [152, 158],
    [162, 163],
    [54, 58],
    [143, 146],
    [13, 18],
    [265, 267],
    [279, 282],
    [315, 317],
    [339, 342],
    [232, 239],
    [138, 144],
    [236, 242],
    [219, 224],
    [66, 69],
    [32, 33],
    [361, 364],
    [232, 234],
    [180, 187],
    [70, 75],
    [168, 174],
    [26, 29],
    [257, 264],
    [276, 283],
    [301, 304],
    [184, 187],
    [308, 314],
    [74, 75],
    [62, 65],
    [226, 228],
    [200, 206],
    [215, 218],
    [274, 277],
    [175, 179],
    [308, 311],
    [15, 18],
    [46, 48],
    [240, 243],
    [333, 336],
    [363, 370],
    [28, 29],
    [43, 45],
    [110, 111],
    [354, 361],
    [21, 22],
    [3, 9],
    [23, 29],
    [353, 356],
    [245, 251],
    [198, 205],
    [200, 201],
    [186, 189],
    [253, 258],
    [303, 306],
    [291, 292],
    [349, 352],
    [122, 125],
    [242, 244],
    [143, 148],
    [106, 112],
    [331, 333],
    [99, 100],
    [108, 113],
    [329, 332],
    [24, 27],
    [236, 238],
    [233, 238],
    [82, 84],
    [147, 149],
    [112, 115],
    [120, 122],
    [327, 330],
    [281, 282],
    [14, 21],
    [108, 111],
    [219, 222],
    [74, 80],
    [17, 23],
    [260, 262],
    [143, 146],
    [171, 173],
    [223, 225],
    [42, 45],
    [140, 147],
    [240, 242],
    [153, 159],
    [324, 325],
    [203, 205],
    [136, 138],
    [216, 218],
    [171, 176],
    [140, 146],
    [191, 197],
    [31, 34],
    [347, 353],
    [350, 352],
    [141, 144],
    [320, 326],
    [231, 234],
    [133, 137],
    [12, 14],
    [87, 89],
    [30, 33],
    [78, 80],
    [243, 246],
    [162, 165],
    [105, 106],
    [147, 153],
    [143, 145],
    [24, 26],
    [13, 18],
    [20, 23],
    [126, 128],
    [242, 247],
    [101, 106],
    [135, 140],
    [43, 44],
    [114, 116],
    [112, 115],
    [25, 27],
    [192, 193],
    [175, 180],
    [39, 46],
    [17, 18],
    [309, 312],
    [16, 19],
    [127, 130],
    [292, 294],
    [297, 300],
    [162, 165],
    [231, 233],
    [25, 29],
    [201, 203],
    [127, 130],
    [158, 160],
    [97, 103],
    [33, 39],
    [102, 105],
    [254, 259],
    [153, 155],
    [255, 258],
    [66, 71],
    [270, 274],
    [279, 280],
    [172, 175],
    [335, 337],
    [166, 170],
    [277, 280],
    [335, 340],
    [338, 345],
    [133, 136],
    [14, 17],
    [145, 151],
    [249, 256],
    [85, 87],
    [76, 83],
    [284, 290],
    [298, 300],
    [291, 293],
    [201, 202],
    [7, 9],
    [164, 167],
    [123, 125],
    [247, 251],
    [266, 267],
    [281, 282],
    [169, 172],
    [214, 217],
    [25, 28],
    [227, 232],
    [222, 224],
    [268, 270],
    [282, 285],
    [250, 252],
    [114, 116],
    [285, 288],
    [5, 12],
    [191, 197],
    [208, 211],
    [117, 120],
    [275, 279],
    [76, 81],
    [209, 211],
    [311, 315],
    [54, 57],
    [148, 155],
    [317, 322],
    [61, 62],
    [131, 137],
    [357, 364],
    [130, 133],
    [333, 337],
    [147, 152],
    [172, 178],
    [102, 103],
    [321, 324],
    [119, 120],
    [66, 69],
    [313, 317],
    [364, 370],
    [308, 311],
    [147, 153],
    [122, 124],
    [251, 256],
    [344, 351],
    [58, 59],
    [157, 163],
    [241, 243],
    [225, 231],
    [261, 263],
    [141, 147],
    [92, 95],
    [36, 39],
    [37, 43],
    [10, 12],
    [166, 169],
    [156, 162],
    [152, 154],
    [312, 315],
    [37, 44],
    [210, 213],
    [91, 93],
    [357, 363],
    [131, 133],
    [347, 348],
    [139, 142],
    [265, 267],
    [196, 201],
    [172, 176],
    [213, 216],
    [130, 135],
    [259, 262],
    [349, 350],
    [326, 329],
    [332, 335],
    [307, 309],
    [217, 221],
    [334, 337],
    [210, 213],
    [311, 313],
    [79, 82],
    [16, 19],
    [119, 120],
    [174, 177],
    [281, 284],
    [260, 263],
    [157, 159],
    [242, 244],
    [178, 184],
    [50, 57],
    [343, 349],
    [322, 324],
    [334, 339],
    [163, 166],
    [346, 353],
    [312, 315],
    [156, 162],
    [89, 95],
    [345, 348],
    [0, 5],
    [23, 26],
    [354, 357],
    [299, 302],
    [114, 117],
    [76, 81],
    [351, 357],
    [342, 343],
    [163, 164],
    [206, 208],
    [291, 292],
    [240, 246],
    [295, 297],
    [134, 136],
    [233, 234],
    [40, 42],
    [36, 38],
    [132, 133],
    [83, 89],
    [161, 163],
    [279, 281],
    [138, 141],
    [183, 186],
    [264, 270],
    [57, 63],
    [61, 67],
    [142, 145],
    [274, 279],
    [275, 281],
    [102, 103],
    [331, 334],
    [302, 305],
    [64, 69],
    [47, 49],
    [27, 32],
    [96, 99],
    [354, 356],
    [275, 281],
    [306, 309],
    [351, 354],
    [65, 72],
    [252, 255],
    [263, 269],
    [306, 308],
    [138, 140],
    [183, 185],
    [348, 350],
    [1, 4],
    [320, 323],
    [343, 349],
    [126, 132],
    [32, 35],
    [200, 203],
    [292, 294],
    [105, 109],
    [167, 171],
    [56, 57],
    [330, 336],
    [72, 75],
    [6, 9],
    [128, 131],
    [126, 133],
    [152, 155],
    [128, 133],
    [308, 310],
    [106, 109],
    [167, 169],
    [40, 42],
    [292, 298],
    [265, 266],
    [142, 144],
    [225, 228],
    [2, 4],
    [269, 275],
    [351, 355],
    [51, 58],
    [154, 156],
    [218, 222],
    [142, 145],
    [285, 288],
    [121, 122],
    [178, 180],
    [162, 168],
    [192, 194],
    [286, 287],
    [310, 317],
    [347, 350],
    [90, 93],
    [43, 45],
    [254, 260],
    [70, 77],
    [164, 166],
    [227, 229],
    [353, 355],
    [364, 367],
    [101, 102],
    [69, 76],
    [6, 10],
    [90, 96],
    [352, 356],
    [166, 167],
    [359, 364],
    [100, 102],
    [44, 47],
    [143, 149],
    [196, 199],
    [208, 211],
    [363, 366],
    [129, 131],
    [33, 39],
    [288, 291],
    [245, 251],
    [44, 46],
    [108, 113],
    [96, 103],
    [260, 262],
    [70, 74],
    [34, 40],
    [327, 332],
    [89, 90],
    [18, 20],
    [186, 187],
    [142, 148],
    [314, 315],
    [147, 150],
    [130, 132],
    [106, 108],
    [155, 158],
    [355, 358],
    [298, 305],
    [78, 81],
    [105, 107],
    [183, 185],
    [325, 330],
    [291, 298],
    [86, 90],
    [119, 122],
    [36, 42],
    [11, 18],
    [71, 73],
    [38, 41],
    [79, 85],
    [170, 172],
    [74, 77],
    [47, 49],
    [35, 38],
    [191, 195],
    [344, 351],
    [7, 10],
    [108, 109],
    [246, 253],
    [285, 290],
    [12, 15],
    [33, 34],
    [235, 236],
    [104, 109],
    [21, 23],
    [213, 215],
    [87, 90],
    [282, 287],
    [139, 143],
    [115, 120],
    [247, 250],
    [16, 18],
    [292, 299],
    [143, 145],
    [145, 151],
    [211, 217],
    [232, 234],
    [27, 31],
    [119, 122],
    [266, 268],
    [248, 251],
    [350, 357],
    [259, 260],
    [310, 313],
    [261, 263],
    [251, 257],
    [0, 6],
    [173, 180],
    [284, 286],
    [105, 107],
    [244, 248],
    [15, 17],
    [89, 92],
    [254, 256],
    [192, 194],
    [230, 237],
    [175, 181],
    [69, 71],
    [161, 166],
    [331, 333],
    [221, 224],
    [62, 63],
    [113, 114],
    [94, 97],
    [89, 92],
    [327, 329],
    [134, 137],
    [157, 164],
    [101, 104],
    [177, 183],
    [88, 90],
    [2, 7],
    [153, 155],
    [354, 357],
    [171, 178],
    [220, 223],
    [231, 232],
    [78, 83],
    [312, 313],
    [149, 150],
    [180, 182],
    [84, 87],
    [105, 108],
    [135, 141],
    [175, 178],
    [69, 71],
    [127, 133],
    [301, 302],
    [124, 130],
    [155, 156],
    [108, 109],
    [322, 329],
    [304, 311],
    [107, 110],
    [257, 259],
    [281, 287],
    [53, 56],
    [206, 211],
    [143, 146],
    [150, 157],
    [200, 202],
    [9, 12],
    [325, 331],
    [314, 321],
    [7, 8],
    [110, 117],
    [108, 112],
    [31, 34],
    [15, 19],
    [313, 317],
    [353, 359],
    [116, 119],
    [284, 287],
    [98, 101],
    [249, 251],
    [185, 191],
    [228, 234],
    [153, 158],
    [17, 19],
    [192, 198],
    [67, 73],
    [213, 219],
    [276, 277],
    [117, 123],
    [202, 204],
    [109, 115],
    [19, 23],
    [338, 342],
    [323, 325],
    [313, 320],
    [166, 172],
    [169, 171],
    [181, 188],
    [86, 89],
    [165, 166],
    [51, 57],
    [246, 248],
    [188, 192],
    [31, 35],
    [336, 339],
    [60, 66],
    [31, 37],
    [66, 67],
    [287, 293],
    [12, 14],
    [152, 155],
    [24, 28],
    [30, 33],
    [262, 265],
    [14, 16],
    [229, 231],
    [331, 334],
    [230, 233],
    [317, 323],
    [80, 86],
    [169, 175],
    [34, 35],
    [279, 282],
    [76, 79],
    [21, 22],
    [201, 204],
    [243, 250],
    [227, 233],
    [296, 299],
    [13, 15],
    [48, 54],
    [338, 344],
    [273, 275],
    [245, 252],
    [150, 157],
    [253, 256],
    [226, 229],
    [34, 40],
    [171, 177],
    [40, 47],
    [65, 66],
    [224, 227],
    [136, 141],
    [12, 15],
    [308, 314],
    [353, 359],
    [344, 351],
    [125, 131],
    [25, 28],
    [328, 332],
    [276, 279],
    [260, 262],
    [363, 364],
    [233, 235],
    [109, 112],
    [24, 27],
    [67, 73],
    [325, 331],
    [72, 77],
    [107, 110],
    [304, 306],
    [279, 280],
    [172, 175],
    [86, 88],
    [328, 330],
    [52, 56],
    [123, 126],
    [289, 296],
    [312, 315],
    [40, 43],
    [114, 118],
    [277, 279],
    [311, 318],
    [92, 98],
    [250, 257],
    [7, 11],
    [69, 70],
    [103, 106],
    [206, 208],
    [302, 308],
    [314, 320],
    [82, 83],
    [229, 230],
    [226, 227],
    [183, 190],
    [346, 353],
    [45, 52],
    [12, 14],
    [195, 197],
    [79, 82],
    [343, 344],
    [290, 295],
    [133, 137],
    [29, 35],
    [346, 352],
    [215, 219],
    [316, 320],
    [292, 299],
    [55, 56],
    [140, 147],
    [328, 331],
    [136, 139],
    [241, 242],
    [153, 155],
    [202, 204],
    [285, 292],
    [138, 139],
    [101, 107],
    [316, 318],
    [10, 16],
    [147, 148],
    [287, 292],
    [295, 297],
    [65, 68],
    [195, 197],
    [360, 362],
    [324, 330],
    [3, 4],
    [58, 64],
    [312, 315],
    [76, 81],
    [153, 155],
    [338, 340],
    [76, 82],
    [285, 288],
    [313, 317],
    [349, 355],
    [193, 196],
    [156, 159],
    [67, 73],
    [66, 67],
    [157, 159],
    [59, 62],
    [78, 81],
    [361, 363],
    [214, 216],
    [78, 83],
    [328, 332],
    [199, 202],
    [273, 276],
    [282, 284],
    [305, 308],
    [6, 10],
    [166, 172],
    [283, 289],
    [124, 130],
    [314, 317],
    [101, 103],
    [211, 213],
    [132, 139],
    [51, 57],
    [297, 298],
    [222, 229],
    [123, 125],
    [141, 144],
    [158, 163],
    [157, 160],
    [220, 225],
    [286, 290],
    [290, 292],
    [139, 144],
    [212, 219],
    [314, 317],
    [364, 366],
    [251, 253],
    [223, 226],
    [151, 154],
    [70, 76],
    [349, 352],
    [233, 239],
    [149, 151],
    [238, 239],
    [203, 208],
    [279, 281],
    [91, 97],
    [94, 95],
    [292, 297],
    [244, 246],
    [43, 46],
    [163, 165],
    [273, 276],
    [99, 104],
    [274, 277],
    [304, 306],
    [150, 154],
    [213, 216],
    [159, 165],
    [124, 131],
    [308, 311],
    [196, 203],
    [353, 355],
    [150, 155],
    [147, 150],
    [218, 220],
    [311, 316],
    [356, 359],
    [284, 288],
    [44, 51],
    [16, 19],
    [328, 330],
    [254, 256],
    [321, 327],
    [29, 32],
    [266, 270],
    [329, 332],
    [297, 303],
    [353, 356],
    [276, 277],
    [238, 240],
    [307, 313],
    [59, 65],
    [219, 223],
    [3, 4],
    [265, 266],
    [20, 23],
    [128, 134],
    [149, 156],
    [60, 63],
    [159, 166],
    [117, 123],
    [153, 155],
    [331, 334],
    [223, 228],
    [150, 154],
    [188, 190],
    [158, 160],
    [110, 113],
    [336, 339],
    [254, 257],
    [339, 342],
    [276, 280],
    [87, 89],
    [143, 145],
    [328, 335],
    [343, 349],
    [60, 66],
    [245, 248],
    [303, 304],
    [337, 344],
    [358, 361],
    [207, 210],
    [79, 81],
    [243, 246],
    [19, 26],
    [146, 149],
    [29, 33],
    [108, 113],
    [152, 155],
    [136, 139],
    [223, 226],
    [186, 193],
    [131, 138],
    [178, 185],
    [180, 182],
    [32, 35],
    [296, 303],
    [177, 182],
    [181, 184],
    [110, 113],
    [315, 318],
    [247, 254],
    [130, 133],
    [144, 145],
    [318, 321],
    [110, 113],
    [37, 41],
    [134, 139],
    [206, 211],
    [49, 56],
    [151, 155],
    [83, 89],
    [315, 316],
    [59, 66],
    [173, 180],
    [19, 26],
    [88, 90],
    [362, 368],
    [241, 246],
    [189, 196],
    [5, 10],
    [257, 259],
    [89, 92],
    [137, 140],
    [19, 22],
    [299, 301],
    [343, 349],
    [303, 309],
    [138, 141],
    [49, 50],
    [73, 77],
    [337, 344],
    [60, 66],
    [196, 198],
    [202, 205],
    [191, 194],
    [62, 65],
    [354, 355],
    [316, 319],
    [214, 217],
    [146, 150],
    [270, 277],
    [141, 144],
    [362, 363],
    [346, 353],
    [226, 229],
    [50, 53],
    [292, 293],
    [138, 143],
    [57, 60],
    [170, 172],
    [197, 200],
    [151, 157],
    [243, 247],
    [227, 232],
    [332, 334],
    [288, 290],
    [356, 359],
    [127, 132],
    [184, 189],
    [243, 248],
    [49, 56],
    [246, 251],
    [167, 170],
    [53, 54],
    [157, 160],
    [237, 240],
    [43, 50],
    [250, 257],
    [121, 126],
    [20, 21],
    [175, 177],
    [340, 343],
    [104, 107],
    [28, 31],
    [193, 200],
    [167, 173],
    [75, 77],
    [81, 85],
    [241, 244],
    [304, 310],
    [46, 52],
    [31, 34],
    [187, 192],
    [296, 299],
    [89, 92],
    [328, 331],
    [328, 330],
    [107, 110],
    [29, 31],
    [321, 324],
    [264, 267],
    [314, 320],
    [33, 35],
    [56, 61],
    [15, 22],
    [11, 13],
    [224, 227],
    [36, 39],
    [126, 132],
    [320, 324],
    [77, 79],
    [211, 214],
    [209, 211],
    [321, 327],
    [291, 292],
    [287, 289],
    [266, 269],
    [8, 9],
    [40, 42],
    [350, 353],
    [245, 249],
    [61, 66],
    [69, 76],
    [332, 334],
    [220, 222],
    [151, 156],
    [88, 91],
    [219, 221],
    [205, 208],
    [307, 309],
    [290, 291],
    [318, 324],
    [98, 104],
    [35, 39],
    [345, 348],
    [320, 326],
    [225, 228],
    [83, 86],
    [323, 326],
    [89, 90],
    [79, 86],
    [255, 261],
    [327, 330],
    [18, 20],
    [275, 282],
    [7, 11],
    [20, 21],
    [284, 291],
    [178, 180],
    [303, 310],
    [205, 208],
    [218, 221],
    [292, 295],
    [139, 146],
    [274, 277],
    [40, 42],
    [332, 336],
    [239, 240],
    [363, 366],
    [179, 185],
    [167, 174],
    [149, 155],
    [157, 159],
    [21, 28],
    [92, 98],
    [36, 38],
    [236, 243],
    [260, 263],
    [360, 366],
    [183, 185],
    [295, 297],
    [338, 345],
    [49, 50],
    [219, 222],
    [236, 239],
    [351, 354],
    [63, 65],
    [88, 95],
    [179, 186],
    [206, 208],
    [176, 178],
    [342, 345],
    [318, 320],
    [17, 19],
    [118, 125],
    [157, 163],
    [114, 117],
    [13, 15],
    [237, 240],
    [344, 348],
    [49, 55],
    [151, 156],
    [236, 239],
    [214, 217],
    [207, 213],
    [108, 111],
    [198, 201],
    [246, 247],
    [331, 333],
    [245, 250],
    [1, 3],
    [94, 98],
    [265, 270],
    [310, 314],
    [170, 173],
    [152, 155],
    [78, 82],
    [45, 48],
    [251, 254],
    [295, 297],
    [102, 105],
    [236, 243],
    [362, 366],
    [137, 144],
    [110, 117],
    [93, 96],
    [1, 4],
    [2, 4],
    [243, 246],
    [234, 237],
    [14, 17],
    [104, 106],
    [293, 299],
    [262, 264],
    [260, 262],
    [219, 222],
    [45, 51],
    [63, 65],
    [15, 17],
    [44, 51],
    [196, 197],
    [130, 133],
    [172, 175],
    [158, 160],
    [230, 231],
    [239, 243],
    [258, 262],
    [156, 163],
    [253, 257],
    [82, 88],
    [109, 113],
    [343, 348],
    [363, 365],
    [238, 240],
    [201, 203],
    [241, 244],
    [270, 272],
    [245, 248],
    [3, 6],
    [173, 176],
    [3, 4],
    [130, 132],
    [240, 241],
    [166, 167],
    [160, 163],
    [17, 21],
    [76, 78],
    [284, 288],
    [227, 229],
    [314, 316],
    [314, 317],
    [122, 125],
    [139, 140],
    [311, 313],
    [331, 332],
    [191, 194],
    [37, 39],
    [317, 320],
    [305, 308],
    [82, 89],
    [246, 252],
    [26, 32],
    [290, 293],
    [291, 298],
    [173, 178],
    [108, 109],
    [304, 309],
    [266, 272],
    [148, 149],
    [37, 43],
    [99, 105],
    [245, 248],
    [146, 149],
    [141, 144],
    [329, 332],
    [59, 62],
    [239, 245],
    [194, 195],
    [279, 282],
    [19, 22],
    [182, 188],
    [219, 223],
    [22, 24],
    [63, 66],
    [162, 163],
    [27, 29],
    [333, 340],
    [228, 231],
    [297, 299],
    [137, 140],
    [216, 223],
    [361, 364],
    [155, 160],
    [57, 60],
    [110, 116],
    [207, 213],
    [189, 191],
    [100, 102],
    [229, 235],
    [51, 53],
    [356, 359],
    [354, 356],
    [241, 248],
    [278, 279],
    [210, 214],
    [216, 219],
    [184, 185],
    [105, 108],
    [40, 46],
    [212, 216],
    [2, 5],
    [98, 100],
    [114, 121],
    [322, 328],
    [12, 19],
    [281, 284],
    [318, 321],
    [157, 158],
    [187, 193],
    [238, 240],
    [159, 162],
    [30, 33],
    [104, 108],
    [152, 159],
    [281, 287],
    [269, 271],
    [8, 15],
    [338, 339],
    [156, 157],
    [196, 199],
    [227, 229],
    [357, 362],
    [90, 93],
    [243, 246],
    [301, 304],
    [37, 39],
    [31, 37],
    [146, 149],
    [143, 146],
    [167, 169],
    [191, 192],
    [43, 47],
    [83, 85],
    [346, 348],
    [275, 282],
    [91, 92],
    [121, 123],
    [235, 238],
    [112, 118],
    [352, 355],
    [49, 50],
    [119, 121],
    [18, 25],
    [134, 138],
    [209, 216],
    [280, 282],
    [320, 326],
    [50, 53],
    [61, 62],
    [54, 57],
    [205, 211],
    [364, 369],
    [123, 126],
    [288, 290],
    [87, 93],
    [90, 92],
    [357, 358],
    [2, 6],
    [284, 287],
    [25, 27],
    [202, 205],
    [120, 124],
    [325, 331],
    [76, 80],
    [198, 200],
    [92, 93],
    [98, 104],
    [339, 343],
    [116, 123],
    [145, 147],
    [190, 193],
    [336, 339],
    [94, 96],
    [344, 346],
    [201, 207],
    [48, 54],
    [358, 359],
    [172, 175],
    [337, 341],
    [247, 250],
    [273, 275],
    [89, 90],
    [236, 237],
    [307, 309],
    [190, 192],
    [346, 348],
    [33, 35],
    [188, 191],
    [253, 255],
    [135, 140],
    [198, 201],
    [111, 117],
    [63, 68],
    [33, 35],
    [29, 36],
    [29, 32],
    [250, 252],
    [342, 344],
    [187, 194],
    [256, 261],
    [85, 91],
    [360, 366],
    [99, 102],
    [38, 43],
    [68, 75],
    [245, 248],
    [113, 117],
    [229, 231],
    [17, 18],
    [298, 300],
    [212, 215],
    [150, 152],
    [243, 250],
    [298, 303],
    [37, 38],
    [45, 48],
    [269, 272],
    [126, 128],
    [43, 50],
    [261, 262],
    [354, 356],
    [348, 351],
    [36, 40],
    [235, 241],
    [334, 337],
    [125, 130],
    [231, 232],
    [341, 346],
    [96, 103],
    [127, 134],
    [207, 209],
    [354, 360],
    [232, 235],
    [123, 130],
    [37, 43],
    [305, 312],
    [217, 220],
    [306, 308],
    [308, 310],
    [275, 278],
    [118, 125],
    [182, 184],
    [137, 139],
    [221, 225],
    [320, 323],
    [68, 72],
    [265, 271],
    [343, 348],
    [229, 231],
    [134, 137],
    [166, 169],
    [18, 24],
    [232, 234],
    [70, 74],
    [173, 176],
    [159, 164],
    [43, 50],
    [257, 262],
    [299, 303],
    [11, 14],
    [104, 107],
    [176, 183],
    [252, 254],
    [270, 272],
    [19, 23],
    [59, 64],
    [24, 25],
    [19, 21],
    [144, 148],
    [122, 124],
    [256, 263],
    [87, 93],
    [17, 20],
    [273, 277],
    [49, 54],
    [108, 109],
    [73, 79],
    [216, 219],
    [229, 234],
    [132, 137],
    [257, 258],
    [297, 303],
    [76, 78],
    [30, 34],
    [207, 210],
    [199, 202],
    [56, 63],
    [200, 206],
    [175, 178],
    [164, 170],
    [66, 70],
    [129, 132],
    [238, 245],
    [158, 160],
    [258, 264],
    [58, 61],
    [309, 316],
    [12, 14],
    [269, 270],
    [300, 306],
    [85, 90],
    [5, 7],
    [290, 295],
    [184, 187],
    [91, 92],
    [299, 306],
    [35, 37],
    [226, 231],
    [20, 22],
    [225, 230],
    [98, 104],
    [84, 87],
    [252, 254],
    [261, 263],
    [152, 153],
    [299, 306],
    [341, 344],
    [150, 154],
    [215, 218],
    [62, 65],
    [33, 34],
    [153, 155],
    [168, 170],
    [160, 165],
    [241, 243],
    [293, 294],
    [193, 196],
    [89, 96],
    [68, 70],
    [180, 182],
    [204, 208],
    [316, 317],
    [220, 226],
    [290, 297],
    [307, 309],
    [315, 317],
    [216, 219],
    [40, 47],
    [37, 43],
    [357, 358],
    [184, 188],
    [67, 69],
    [213, 214],
    [235, 237],
    [219, 226],
    [63, 69],
    [346, 349],
    [108, 111],
    [1, 7],
    [319, 325],
    [282, 289],
    [134, 140],
    [296, 299],
    [74, 76],
    [313, 315],
    [354, 358],
    [28, 33],
    [149, 152],
    [88, 92],
    [262, 265],
    [98, 101],
    [65, 68],
    [59, 62],
    [118, 124],
    [280, 287],
    [280, 283],
    [70, 73],
    [36, 42],
    [247, 253],
    [127, 134],
    [183, 186],
    [303, 309],
    [71, 75],
    [133, 140],
    [160, 163],
    [125, 127],
    [23, 30],
    [275, 280],
    [213, 216],
    [95, 98],
    [23, 29],
    [53, 56],
    [358, 360],
    [79, 80],
    [273, 280],
    [174, 179],
    [41, 46],
    [65, 66],
    [173, 174],
    [14, 17],
    [284, 287],
    [288, 293],
    [322, 327],
    [123, 128],
    [82, 85],
    [223, 226],
    [198, 201],
    [145, 147],
    [30, 34],
    [223, 229],
    [207, 209],
    [247, 248],
    [290, 292],
    [244, 247],
    [278, 285],
    [282, 289],
    [244, 250],
    [226, 232],
    [341, 347],
    [188, 193],
    [12, 16],
    [145, 146],
    [285, 287],
    [233, 234],
    [315, 322],
    [308, 312],
    [179, 183],
    [340, 342],
    [305, 308],
    [84, 91],
    [246, 248],
    [201, 203],
    [35, 37],
    [202, 204],
    [283, 286],
    [87, 90],
    [9, 11],
    [271, 272],
    [123, 125],
    [149, 152],
    [193, 197],
    [291, 298],
    [83, 89],
    [41, 48],
    [112, 118],
    [123, 125],
    [171, 176],
    [24, 27],
    [344, 347],
    [40, 41],
    [346, 353],
    [163, 170],
    [317, 320],
    [308, 315],
    [357, 360],
    [284, 291],
    [30, 33],
    [70, 73],
    [8, 12],
    [126, 129],
    [313, 316],
    [172, 173],
    [278, 280],
    [110, 113],
    [113, 120],
    [232, 233],
    [331, 334],
    [322, 325],
    [33, 38],
    [300, 303],
    [113, 120],
    [330, 331],
    [64, 66],
    [162, 165],
    [104, 111],
    [345, 347],
    [129, 131],
    [285, 292],
    [260, 263],
    [213, 218],
    [338, 341],
    [34, 37],
    [118, 122],
    [99, 102],
    [115, 122],
    [158, 160],
    [170, 176],
    [83, 86],
    [164, 167],
    [65, 69],
    [316, 322],
    [166, 168],
    [284, 290],
    [290, 293],
    [323, 325],
    [202, 203],
    [112, 115],
    [349, 352],
    [141, 142],
    [94, 101],
    [163, 166],
    [131, 138],
    [111, 117],
    [89, 95],
    [336, 339],
    [209, 211],
    [274, 280],
    [120, 123],
    [363, 370],
    [74, 78],
    [5, 6],
    [27, 28],
    [267, 272],
    [251, 254],
    [138, 139],
    [315, 321],
    [180, 182],
    [250, 251],
    [320, 324],
    [90, 95],
    [7, 9],
    [167, 168],
    [43, 50],
    [340, 343],
    [35, 42],
    [199, 202],
    [260, 263],
    [92, 95],
    [25, 26],
    [119, 125],
    [219, 220],
    [343, 345],
    [287, 290],
    [316, 323],
    [43, 45],
    [99, 100],
    [307, 309],
    [291, 293],
    [55, 61],
    [358, 364],
    [64, 70],
    [51, 53],
    [252, 253],
    [40, 43],
    [160, 167],
    [147, 153],
    [344, 347],
    [131, 138],
    [298, 301],
    [135, 137],
    [197, 198],
    [48, 50],
    [210, 212],
    [360, 364],
    [121, 128],
    [111, 113],
    [285, 288],
    [185, 188],
    [89, 92],
    [341, 344],
    [6, 9],
    [214, 215],
    [264, 266],
    [248, 251],
    [67, 70],
    [227, 230],
    [22, 27],
    [308, 315],
    [7, 9],
    [173, 176],
    [176, 177],
    [214, 216],
    [85, 87],
    [166, 168],
    [217, 221],
    [100, 103],
    [115, 121],
    [205, 211],
    [126, 128],
    [127, 132],
    [248, 254],
    [129, 135],
    [120, 123],
    [280, 283],
    [260, 267],
    [244, 247],
    [201, 204],
    [191, 192],
    [214, 215],
    [16, 19],
    [88, 91],
    [103, 106],
    [148, 154],
    [280, 282],
    [360, 367],
    [352, 353],
    [164, 168],
    [265, 268],
    [97, 99],
    [327, 331],
    [52, 55],
    [255, 258],
    [349, 350],
    [243, 246],
    [103, 106],
    [280, 287],
    [316, 318],
    [274, 275],
    [335, 338],
    [290, 292],
    [207, 213],
    [322, 325],
    [87, 94],
    [294, 300],
    [89, 91],
    [327, 328],
    [266, 268],
    [69, 71],
    [84, 85],
    [108, 111],
    [33, 35],
    [307, 313],
    [133, 139],
    [60, 64],
    [2, 5],
    [208, 214],
    [269, 270],
    [363, 365],
    [9, 10],
    [313, 318],
    [338, 343],
    [58, 60],
    [146, 149],
    [102, 105],
    [38, 41],
    [330, 333],
    [24, 30],
    [251, 254],
    [310, 311],
    [242, 245],
    [142, 145],
    [177, 180],
    [142, 143],
    [177, 183],
    [288, 291],
    [137, 143],
    [253, 260],
    [55, 59],
    [53, 54],
    [295, 301],
    [323, 328],
    [133, 135],
    [321, 324],
    [289, 290],
    [314, 321],
    [237, 240],
    [243, 245],
    [320, 322],
    [169, 172],
    [101, 104],
    [175, 182],
    [135, 141],
    [59, 65],
    [22, 25],
    [53, 60],
    [302, 304],
    [353, 359],
    [298, 301],
    [195, 201],
    [204, 206],
    [44, 46],
    [52, 59],
    [233, 236],
    [241, 247],
    [354, 355],
    [315, 321],
    [308, 310],
    [54, 55],
    [117, 121],
    [123, 128],
    [328, 334],
    [101, 103],
    [110, 113],
    [75, 77],
    [354, 356],
    [46, 49],
    [77, 80],
    [356, 357],
    [189, 192],
    [64, 66],
    [332, 335],
    [123, 129],
    [174, 177],
    [150, 151],
    [149, 151],
    [179, 182],
    [50, 53],
    [258, 264],
    [281, 284],
    [175, 177],
    [358, 365],
    [273, 280],
    [108, 114],
    [133, 136],
    [84, 86],
    [145, 152],
    [275, 278],
    [138, 143],
    [73, 75],
    [218, 221],
    [187, 193],
    [195, 196],
    [7, 14],
    [311, 314],
    [275, 278],
    [273, 275],
    [77, 82],
    [57, 59],
    [19, 23],
    [285, 288],
    [7, 12],
    [311, 317],
    [59, 64],
    [120, 122],
    [6, 8],
    [2, 4],
    [201, 204],
    [136, 141],
    [64, 70],
    [268, 274],
    [15, 17],
    [130, 133],
    [71, 74],
    [137, 139],
    [36, 43],
    [60, 63],
    [196, 197],
    [132, 138],
    [134, 137],
    [319, 321],
    [74, 80],
    [340, 343],
    [287, 288],
    [0, 2],
    [326, 328],
    [355, 360],
    [229, 236],
    [176, 183],
    [190, 194],
    [96, 100],
    [168, 170],
    [360, 361],
    [287, 294],
    [249, 250],
    [278, 280],
    [167, 168],
    [49, 51],
    [237, 239],
    [71, 77],
    [216, 219],
    [7, 12],
    [283, 289],
    [162, 164],
    [225, 232],
    [182, 187],
    [257, 260],
    [152, 153],
    [1, 5],
    [126, 132],
    [337, 343],
    [33, 39],
    [3, 7],
    [170, 173],
    [237, 238],
    [20, 23],
    [98, 100],
    [364, 365],
    [82, 83],
    [13, 16],
    [96, 98],
    [240, 243],
    [243, 246],
    [211, 218],
    [280, 285],
    [55, 57],
    [240, 243],
    [279, 286],
    [128, 135],
    [68, 71],
    [327, 329],
    [296, 302],
    [46, 50],
    [322, 329],
    [172, 178],
    [296, 298],
    [328, 331],
    [137, 144],
    [15, 20],
    [32, 34],
    [267, 270],
    [37, 40],
    [208, 215],
    [98, 105],
    [20, 27],
    [135, 138],
    [80, 86],
    [361, 368],
    [260, 267],
    [259, 261],
    [280, 287],
    [13, 16],
    [244, 247],
    [58, 60],
    [226, 228],
    [238, 245],
    [69, 75],
    [332, 334],
    [24, 27],
    [160, 163],
    [100, 104],
    [229, 236],
    [347, 353],
    [281, 285],
    [23, 30],
    [32, 36],
    [237, 243],
    [131, 134],
    [137, 139],
    [108, 114],
    [252, 255],
    [63, 66],
    [71, 73],
    [206, 210],
    [109, 112],
    [360, 363],
    [304, 305],
    [312, 314],
    [318, 325],
    [274, 276],
    [182, 188],
    [140, 143],
    [12, 18],
    [57, 63],
    [346, 349],
    [238, 241],
    [304, 310],
    [94, 95],
    [188, 194],
    [227, 230],
    [309, 316],
    [51, 53],
    [226, 229],
    [63, 65],
    [197, 203],
    [216, 218],
    [115, 122],
    [305, 306],
    [313, 314],
    [352, 355],
    [31, 34],
    [116, 118],
    [90, 93],
    [85, 92],
    [134, 137],
    [282, 289],
    [117, 121],
    [326, 329],
    [71, 74],
    [270, 271],
    [162, 165],
    [252, 257],
    [257, 263],
    [214, 220],
    [193, 195],
    [222, 228],
    [273, 274],
    [275, 278],
    [218, 224],
    [317, 319],
    [313, 315],
    [124, 129],
    [307, 313],
    [120, 122],
    [361, 364],
    [290, 292],
    [33, 40],
    [17, 24],
    [139, 142],
    [302, 304],
    [359, 360],
    [77, 83],
    [93, 94],
    [309, 311],
    [77, 79],
    [200, 201],
    [358, 364],
    [136, 141],
    [91, 93],
    [231, 233],
    [105, 107],
    [305, 307],
    [233, 236],
    [54, 60],
    [298, 301],
    [205, 210],
    [257, 260],
    [311, 318],
    [244, 247],
    [41, 48],
    [120, 121],
    [267, 269],
    [155, 158],
    [342, 347],
    [288, 290],
    [227, 230],
    [256, 259],
    [322, 328],
    [117, 124],
    [0, 7],
    [170, 175],
    [151, 158],
    [174, 181],
    [181, 183],
    [175, 178],
    [217, 223],
    [268, 272],
    [7, 10],
    [79, 81],
    [39, 42],
    [41, 46],
    [314, 318],
    [28, 35],
    [220, 223],
    [320, 322],
    [281, 287],
    [343, 346],
    [262, 265],
    [260, 263],
    [337, 344],
    [103, 105],
    [155, 157],
    [263, 270],
    [247, 252],
    [245, 247],
    [328, 330],
    [110, 116],
    [113, 119],
    [188, 194],
    [43, 46],
    [134, 137],
    [199, 205],
    [271, 274],
    [327, 330],
    [342, 344],
    [324, 329],
    [31, 33],
    [277, 283],
    [359, 365],
    [122, 124],
    [325, 327],
    [53, 55],
    [71, 73],
    [334, 336],
    [361, 363],
    [45, 51],
    [143, 150],
    [235, 236],
    [75, 80],
    [85, 88],
    [281, 284],
    [181, 187],
    [319, 321],
    [33, 35],
    [145, 150],
    [139, 143],
    [42, 45],
    [218, 220],
    [292, 297],
    [103, 105],
    [50, 57],
    [118, 123],
    [65, 68],
    [14, 15],
    [38, 41],
    [245, 248],
    [291, 293],
    [108, 111],
    [324, 327],
    [147, 149],
    [259, 265],
    [165, 167],
    [342, 343],
    [195, 197],
    [302, 303],
    [136, 139],
    [190, 192],
    [39, 42],
    [178, 183],
    [152, 153],
    [254, 259],
    [256, 259],
    [344, 346],
    [308, 313],
    [197, 202],
    [221, 225],
    [288, 290],
    [224, 230],
    [356, 359],
    [271, 273],
    [129, 132],
    [226, 230],
    [14, 17],
    [316, 321],
    [253, 256],
    [140, 147],
    [89, 92],
    [272, 274],
    [35, 41],
    [38, 45],
    [212, 216],
    [56, 59],
    [201, 203],
    [11, 12],
    [319, 320],
    [49, 55],
    [43, 46],
    [246, 248],
    [203, 209],
    [24, 26],
    [232, 235],
    [288, 290],
    [108, 114],
    [1, 4],
    [268, 273],
    [34, 35],
    [273, 276],
    [286, 292],
    [219, 221],
    [29, 36],
    [350, 353],
    [216, 223],
    [13, 16],
    [108, 109],
    [48, 49],
    [339, 343],
    [233, 235],
    [358, 365],
    [97, 103],
    [224, 227],
    [322, 328],
    [243, 246],
    [339, 346],
    [13, 14],
    [63, 70],
    [315, 321],
    [46, 48],
    [140, 143],
    [57, 62],
    [191, 194],
    [321, 322],
    [273, 279],
    [328, 331],
    [186, 191],
    [183, 186],
    [101, 106],
    [277, 280],
    [36, 40],
    [285, 288],
    [45, 47],
    [40, 42],
    [238, 241],
    [159, 160],
    [174, 181],
    [65, 71],
    [209, 215],
    [271, 274],
    [221, 222],
    [33, 38],
    [79, 83],
    [110, 113],
    [136, 138],
    [360, 363],
    [349, 353],
    [304, 307],
    [328, 332],
    [159, 163],
    [177, 180],
    [139, 145],
    [106, 107],
    [169, 171],
    [4, 7],
    [169, 171],
    [96, 101],
    [62, 63],
    [360, 363],
    [317, 320],
    [93, 96],
    [25, 28],
    [217, 223],
    [273, 276],
    [222, 224],
    [87, 92],
    [22, 25],
    [75, 80],
    [324, 331],
    [40, 43],
    [341, 344],
    [188, 191],
    [326, 328],
    [186, 189],
    [4, 6],
    [183, 184],
    [4, 10],
    [264, 266],
    [264, 267],
    [285, 291],
    [97, 104],
    [84, 86],
    [337, 340],
    [207, 210],
    [19, 22],
    [129, 131],
    [80, 83],
    [339, 341],
    [203, 208],
    [181, 186],
    [333, 336],
    [174, 176],
    [3, 10],
    [9, 15],
    [347, 352],
    [355, 357],
    [363, 365],
    [267, 269],
    [196, 202],
    [188, 189],
    [166, 173],
    [239, 241],
    [155, 157],
    [42, 43],
    [240, 241],
    [161, 164],
    [282, 285],
    [145, 148],
    [234, 235],
    [70, 73],
    [45, 47],
    [253, 256],
    [226, 230],
    [18, 24],
    [284, 290],
    [68, 70],
    [86, 87],
    [233, 239],
    [138, 140],
    [335, 338],
    [183, 188],
    [167, 172],
    [280, 281],
    [187, 188],
    [95, 102],
    [66, 68],
    [46, 48],
    [62, 65],
    [288, 295],
    [287, 294],
    [253, 259],
    [73, 78],
    [354, 360],
    [112, 114],
    [96, 97],
    [128, 131],
    [148, 151],
    [302, 306],
    [38, 44],
    [261, 267],
    [132, 136],
    [288, 295],
    [354, 356],
    [235, 242],
    [294, 300],
    [148, 149],
    [91, 94],
    [26, 30],
    [110, 113],
    [230, 233],
    [171, 176],
    [297, 301],
    [357, 360],
    [34, 41],
    [169, 174],
    [223, 229],
    [109, 116],
    [343, 346],
    [339, 345],
    [199, 205],
    [224, 227],
    [77, 81],
    [334, 336],
    [222, 225],
    [255, 259],
    [357, 360],
    [134, 136],
    [10, 12],
    [321, 327],
    [194, 197],
    [220, 223],
    [287, 291],
    [258, 261],
    [173, 176],
    [187, 188],
    [177, 180],
    [314, 317],
    [164, 171],
    [9, 13],
    [113, 116],
    [228, 234],
    [6, 11],
    [261, 264],
    [215, 220],
    [244, 247],
    [143, 147],
    [131, 138],
    [4, 11],
    [180, 186],
    [125, 127],
    [149, 154],
    [243, 246],
    [130, 137],
    [324, 328],
    [353, 354],
    [206, 209],
    [118, 121],
    [157, 158],
    [270, 275],
    [324, 331],
    [325, 326],
    [4, 7],
    [164, 167],
    [307, 314],
    [228, 234],
    [17, 23],
    [279, 281],
    [115, 118],
    [278, 280],
    [225, 228],
    [117, 124],
    [291, 294],
    [224, 225],
    [314, 320],
    [343, 346],
    [285, 288],
    [358, 360],
    [135, 139],
    [272, 274],
    [200, 202],
    [180, 185],
    [347, 354],
    [330, 337],
    [56, 58],
    [80, 82],
    [93, 96],
    [213, 216],
    [88, 92],
    [239, 242],
    [52, 55],
    [306, 308],
    [343, 349],
    [251, 253],
    [107, 111],
    [330, 334],
    [135, 137],
    [351, 354],
    [34, 40],
    [99, 106],
    [343, 345],
    [350, 352],
    [162, 167],
    [112, 114],
    [189, 191],
    [342, 343],
    [334, 339],
    [263, 269],
    [286, 289],
    [188, 189],
    [343, 349],
    [111, 114],
    [295, 297],
    [149, 150],
    [61, 62],
    [245, 249],
    [7, 9],
    [236, 241],
    [291, 298],
    [65, 71],
    [305, 306],
    [28, 31],
    [292, 299],
    [116, 121],
    [111, 114],
    [258, 261],
    [14, 17],
    [169, 176],
    [229, 235],
    [283, 290],
    [189, 191],
    [105, 107],
    [159, 161],
    [237, 241],
    [341, 347],
    [340, 342],
    [158, 162],
    [229, 232],
    [299, 300],
    [32, 35],
    [296, 301],
    [121, 127],
    [280, 281],
    [262, 268],
    [245, 248],
    [4, 6],
    [261, 263],
    [171, 173],
    [7, 10],
    [303, 305],
    [86, 88],
    [261, 266],
    [152, 154],
    [362, 365],
    [102, 108],
    [330, 331],
    [82, 83],
    [101, 103],
    [11, 14],
    [118, 119],
    [222, 224],
    [136, 139],
    [190, 193],
    [46, 49],
    [353, 359],
    [202, 209],
    [265, 268],
    [125, 127],
    [95, 97],
    [296, 299],
    [275, 281],
    [342, 348],
    [158, 160],
    [259, 262],
    [91, 93],
    [116, 121],
    [66, 68],
    [209, 211],
    [262, 264],
    [315, 321],
    [92, 95],
    [84, 86],
    [187, 189],
    [149, 156],
    [53, 57],
    [286, 288],
    [176, 180],
    [295, 302],
    [149, 151],
    [56, 63],
    [345, 347],
    [108, 109],
    [362, 364],
    [165, 168],
    [58, 62],
    [171, 178],
    [80, 81],
    [17, 21],
    [50, 57],
    [220, 223],
    [240, 244],
    [244, 251],
    [337, 342],
    [72, 78],
    [76, 79],
    [97, 101],
    [352, 355],
    [294, 301],
    [77, 81],
    [208, 209],
    [321, 324],
    [127, 130],
    [316, 319],
    [26, 29],
    [184, 189],
    [159, 160],
    [257, 258],
    [282, 286],
    [157, 160],
    [194, 197],
    [194, 197],
    [119, 126],
    [11, 13],
    [14, 20],
    [95, 96],
    [72, 77],
    [253, 254],
    [147, 149],
    [285, 286],
    [170, 174],
    [64, 67],
    [306, 313],
    [3, 6],
    [305, 307],
    [60, 66],
    [291, 293],
    [138, 141],
    [239, 242],
    [308, 313],
    [231, 233],
    [293, 296],
    [171, 174],
    [87, 93],
    [295, 298],
    [55, 56],
    [160, 167],
    [134, 137],
    [206, 209],
    [249, 251],
    [56, 61],
    [298, 300],
    [343, 346],
    [285, 287],
    [177, 183],
    [83, 90],
    [36, 43],
    [119, 122],
    [49, 52],
    [309, 313],
    [220, 222],
    [171, 177],
    [146, 149],
    [142, 145],
    [236, 239],
    [204, 210],
    [41, 47],
    [172, 175],
    [102, 103],
    [323, 326],
    [101, 105],
    [331, 333],
    [104, 107],
    [208, 214],
    [49, 51],
    [69, 70],
    [281, 283],
    [230, 232],
    [320, 324],
    [116, 117],
    [6, 9],
    [23, 29],
    [150, 157],
    [132, 138],
    [162, 166],
    [122, 127],
    [256, 257],
    [5, 8],
    [333, 334],
    [76, 79],
    [241, 247],
    [314, 316],
    [103, 110],
    [262, 265],
    [199, 206],
    [45, 47],
    [276, 278],
    [39, 42],
    [69, 73],
    [6, 8],
    [286, 287],
    [57, 60],
    [323, 324],
    [131, 133],
    [176, 177],
    [29, 32],
    [26, 28],
    [360, 363],
    [188, 191],
    [67, 70],
    [331, 334],
    [251, 254],
    [199, 202],
    [177, 178],
    [262, 265],
    [112, 115],
    [6, 8],
    [309, 316],
    [261, 264],
    [27, 30],
    [193, 196],
    [165, 167],
    [275, 277],
    [79, 85],
    [228, 234],
    [54, 60],
    [55, 59],
    [26, 32],
    [116, 121],
    [61, 67],
    [82, 83],
    [155, 162],
    [317, 324],
    [124, 127],
    [313, 316],
    [139, 142],
    [242, 243],
    [231, 233],
    [53, 60],
    [236, 239],
    [234, 236],
    [270, 276],
    [120, 127],
    [289, 292],
    [122, 128],
    [214, 217],
    [336, 339],
    [55, 62],
    [29, 36],
    [274, 280],
    [254, 257],
    [10, 12],
    [162, 163],
    [356, 359],
    [278, 284],
    [50, 57],
    [73, 76],
    [292, 299],
    [354, 355],
    [214, 220],
    [153, 156],
    [91, 94],
    [287, 289],
    [282, 289],
    [362, 365],
    [282, 283],
    [146, 147],
    [284, 291],
    [87, 91],
    [189, 192],
    [315, 319],
    [319, 326],
    [157, 163],
    [153, 158],
    [42, 43],
    [334, 341],
    [260, 262],
    [75, 77],
    [165, 167],
    [40, 47],
    [65, 66],
    [291, 293],
    [277, 278],
    [150, 155],
    [161, 167],
    [9, 15],
    [57, 59],
    [168, 171],
    [125, 126],
    [215, 218],
    [341, 344],
    [341, 346],
    [294, 300],
    [47, 53],
    [148, 150],
    [238, 241],
    [16, 21],
    [344, 345],
    [93, 96],
    [119, 122],
    [179, 181],
    [205, 208],
    [187, 188],
    [208, 210],
    [10, 15],
    [212, 218],
    [343, 346],
    [343, 346],
    [56, 62],
    [32, 34],
    [147, 154],
    [14, 15],
    [318, 321],
    [227, 233],
    [264, 270],
    [130, 132],
    [287, 290],
    [88, 91],
    [307, 308],
    [85, 87],
    [7, 14],
    [194, 197],
    [263, 266],
    [298, 300],
    [10, 12],
    [13, 16],
    [174, 180],
    [124, 130],
    [25, 29],
    [163, 165],
    [259, 265],
    [111, 114],
    [127, 129],
    [32, 35],
    [37, 43],
    [99, 102],
    [98, 100],
    [361, 364],
    [20, 22],
    [227, 233],
    [151, 153],
    [223, 229],
    [317, 319],
    [228, 234],
    [229, 236],
    [192, 193],
    [260, 263],
    [22, 28],
    [151, 157],
    [16, 20],
    [150, 154],
    [268, 270],
    [235, 238],
    [49, 54],
    [49, 51],
    [6, 8],
    [33, 34],
    [246, 248],
    [149, 151],
    [261, 264],
    [77, 78],
    [299, 302],
    [174, 176],
    [314, 315],
    [262, 265],
    [238, 245],
    [197, 200],
    [245, 246],
    [76, 79],
    [363, 370],
    [25, 27],
    [40, 41],
    [14, 21],
    [5, 11],
    [32, 38],
    [321, 323],
    [327, 328],
    [291, 294],
    [83, 90],
    [23, 26],
    [55, 58],
    [116, 122],
    [55, 58],
    [110, 116],
    [347, 348],
    [134, 135],
    [201, 203],
    [92, 98],
    [158, 165],
    [85, 92],
    [208, 214],
    [147, 151],
    [312, 314],
    [348, 354],
    [92, 94],
    [188, 195],
    [229, 235],
    [355, 357],
    [11, 17],
    [48, 50],
    [176, 181],
    [291, 294],
    [281, 285],
    [96, 102],
    [357, 363],
    [258, 261],
    [249, 252],
    [338, 339],
    [20, 24],
    [171, 173],
    [79, 80],
    [5, 6],
    [217, 220],
    [319, 322],
    [192, 194],
    [129, 133],
    [355, 361],
    [151, 157],
    [31, 38],
    [352, 356],
    [327, 329],
    [359, 365],
    [266, 269],
    [172, 178],
    [225, 231],
    [37, 39],
    [23, 26],
    [214, 217],
    [340, 343],
    [100, 104],
    [245, 248],
    [190, 192],
    [128, 130],
    [320, 322],
    [27, 29],
    [82, 83],
    [203, 210],
    [43, 47],
    [302, 305],
    [40, 41],
    [351, 353],
    [121, 127],
    [325, 328],
    [113, 114],
    [204, 207],
    [149, 155],
    [352, 359],
    [74, 77],
    [177, 180],
    [53, 56],
    [52, 59],
    [97, 99],
    [359, 360],
    [51, 58],
    [358, 361],
    [223, 224],
    [297, 298],
    [130, 133],
    [231, 237],
    [65, 68],
    [26, 28],
    [285, 289],
    [94, 96],
    [68, 71],
    [309, 310],
    [352, 355],
    [40, 46],
    [6, 10],
    [4, 7],
    [209, 214],
    [282, 288],
    [289, 293],
    [27, 32],
    [326, 328],
    [161, 164],
    [169, 171],
    [130, 137],
    [131, 133],
    [216, 219],
    [76, 79],
    [315, 320],
    [189, 192],
    [28, 32],
    [183, 189],
    [286, 293],
    [76, 78],
    [296, 298],
    [122, 125],
    [226, 232],
    [260, 263],
    [171, 175],
    [248, 249],
    [313, 315],
    [27, 29],
    [193, 199],
    [182, 188],
    [153, 154],
    [93, 99],
    [191, 192],
    [261, 266],
    [96, 97],
    [2, 4],
    [67, 70],
    [213, 215],
    [214, 218],
    [346, 349],
    [264, 266],
    [73, 76],
    [233, 236],
    [194, 195],
    [130, 133],
    [130, 132],
    [303, 306],
    [191, 195],
    [186, 193],
    [6, 12],
    [22, 25],
    [99, 102],
    [202, 206],
    [26, 32],
    [56, 62],
    [89, 91],
    [97, 99],
    [231, 234],
    [17, 20],
    [49, 51],
    [171, 177],
    [302, 305],
    [110, 112],
    [289, 290],
    [293, 296],
    [319, 321],
    [175, 178],
    [162, 167],
    [9, 12],
    [89, 92],
    [0, 3],
    [118, 121],
    [189, 193],
    [156, 158],
    [248, 251],
    [184, 191],
    [280, 287],
    [335, 338],
    [202, 205],
    [240, 242],
    [70, 76],
    [358, 361],
    [9, 16],
    [186, 191],
    [54, 59],
    [320, 321],
    [181, 184],
    [251, 257],
    [227, 234],
    [137, 138],
    [59, 64],
    [63, 66],
    [112, 113],
    [37, 41],
    [223, 230],
    [28, 31],
    [327, 330],
    [68, 70],
    [252, 256],
    [203, 206],
    [149, 152],
    [69, 74],
    [266, 269],
    [30, 37],
    [165, 167],
    [316, 319],
    [266, 267],
    [35, 39],
    [177, 180],
    [3, 6],
    [269, 276],
    [171, 174],
    [70, 71],
    [150, 153],
    [296, 299],
    [201, 208],
    [54, 59],
    [253, 256],
    [210, 213],
    [204, 206],
    [27, 29],
    [182, 189],
    [300, 303],
    [344, 350],
    [68, 70],
    [56, 62],
    [245, 251],
    [160, 164],
    [167, 170],
    [208, 210],
    [61, 64],
    [138, 140],
    [0, 1],
    [150, 153],
    [93, 99],
    [191, 196],
    [237, 240],
    [73, 76],
    [20, 21],
    [357, 360],
    [333, 338],
    [264, 267],
    [135, 139],
    [188, 190],
    [280, 284],
    [252, 255],
    [241, 247],
    [259, 262],
    [112, 115],
    [296, 302],
    [275, 277],
    [333, 335],
    [171, 173],
    [140, 143],
    [97, 104],
    [99, 101],
    [279, 282],
    [178, 184],
    [309, 311],
    [24, 27],
    [20, 27],
    [178, 181],
    [320, 323],
    [232, 234],
    [280, 282],
    [12, 13],
    [163, 166],
    [303, 305],
    [23, 29],
    [57, 63],
    [119, 121],
    [309, 311],
    [123, 126],
    [12, 13],
    [240, 243],
    [108, 115],
    [11, 12],
    [193, 200],
    [22, 28],
    [266, 271],
    [140, 143],
    [231, 237],
    [153, 155],
    [181, 184],
    [287, 294],
    [341, 343],
    [301, 302],
    [331, 334],
    [217, 220],
    [124, 131],
    [107, 110],
    [22, 29],
    [166, 173],
    [220, 224],
    [258, 260],
    [335, 342],
    [10, 11],
    [203, 205],
    [196, 202],
    [236, 238],
    [324, 331],
    [216, 222],
    [174, 177],
    [212, 215],
    [339, 341],
    [216, 217],
    [226, 229],
    [235, 242],
    [263, 265],
    [144, 150],
    [56, 59],
    [354, 357],
    [207, 208],
    [241, 242],
    [101, 104],
    [284, 287],
    [170, 171],
    [139, 145],
    [53, 56],
    [45, 46],
    [4, 6],
    [7, 14],
    [189, 195],
    [22, 26],
    [305, 308],
    [142, 144],
    [197, 203],
    [247, 249],
    [96, 97],
    [95, 98],
    [303, 305],
    [80, 83],
    [313, 319],
    [157, 159],
    [182, 188],
    [53, 56],
    [258, 261],
    [1, 2],
    [253, 255],
    [240, 247],
    [44, 47],
    [169, 172],
    [22, 24],
    [305, 308],
    [36, 37],
    [129, 136],
    [88, 94],
    [67, 70],
    [55, 59],
    [321, 328],
    [91, 96],
    [149, 152],
    [274, 275],
    [21, 24],
    [261, 267],
    [236, 241],
    [41, 44],
    [190, 191],
    [37, 42],
    [187, 193],
    [29, 36],
    [207, 210],
    [116, 119],
    [268, 270],
    [200, 202],
    [130, 133],
    [252, 253],
    [228, 230],
    [224, 225],
    [217, 222],
    [328, 331],
    [255, 260],
    [219, 222],
    [165, 170],
    [287, 293],
    [350, 352],
    [15, 18],
    [253, 257],
    [220, 226],
    [154, 156],
    [244, 246],
    [306, 309],
    [66, 71],
    [165, 169],
    [255, 259],
    [297, 300],
    [91, 93],
    [279, 281],
    [127, 132],
    [82, 83],
    [167, 170],
    [56, 59],
    [257, 264],
    [272, 279],
    [94, 96],
    [59, 61],
    [129, 131],
    [303, 306],
    [12, 17],
    [356, 360],
    [8, 9],
    [194, 196],
    [62, 65],
    [120, 123],
    [82, 89],
    [154, 157],
    [243, 244],
    [345, 346],
    [258, 261],
    [236, 238],
    [220, 225],
    [75, 81],
    [93, 94],
    [98, 105],
    [154, 158],
    [35, 38],
    [31, 34],
    [191, 194],
    [60, 67],
    [331, 337],
    [85, 86],
    [163, 169],
    [325, 331],
    [258, 262],
    [90, 93],
    [39, 40],
    [289, 295],
    [246, 252],
    [25, 30],
    [173, 177],
    [78, 85],
    [72, 78],
    [333, 336],
    [238, 242],
    [254, 257],
    [45, 51],
    [267, 274],
    [226, 229],
    [62, 65],
    [45, 47],
    [257, 263],
    [165, 167],
    [93, 94],
    [294, 297],
    [335, 340],
    [95, 102],
    [243, 246],
    [78, 81],
    [224, 226],
    [271, 275],
    [59, 64],
    [254, 257],
    [10, 16],
    [49, 54],
    [129, 131],
    [171, 173],
    [354, 361],
    [141, 146],
    [87, 89],
    [29, 33],
    [166, 168],
    [85, 87],
    [360, 363],
    [218, 224],
    [168, 175],
    [73, 75],
    [189, 193],
    [360, 365],
    [38, 43],
    [169, 170],
    [80, 82],
    [294, 296],
    [340, 346],
    [101, 104],
    [166, 173],
    [356, 358],
    [81, 83],
    [225, 230],
    [68, 70],
    [2, 5],
    [197, 199],
    [116, 118],
    [83, 86],
    [298, 301],
    [239, 241],
    [143, 146],
    [233, 240],
    [98, 101],
    [218, 221],
    [305, 312],
    [350, 353],
    [222, 225],
    [201, 204],
    [201, 207],
    [242, 244],
    [95, 97],
    [298, 301],
    [235, 239],
    [100, 104],
    [266, 272],
    [286, 289],
    [189, 191],
    [338, 341],
    [178, 181],
    [71, 77],
    [60, 61],
    [89, 92],
    [125, 130],
    [164, 169],
    [4, 10],
    [135, 138],
    [53, 55],
    [197, 198],
    [93, 100],
    [38, 41],
    [54, 56],
    [26, 29],
    [183, 187],
    [63, 65],
    [256, 263],
    [50, 52],
    [55, 58],
    [80, 82],
    [76, 82],
    [146, 150],
    [292, 296],
    [250, 255],
    [345, 348],
    [118, 120],
    [27, 34],
    [284, 287],
    [110, 112],
    [279, 281],
    [21, 23],
    [180, 183],
    [284, 287],
    [229, 232],
    [100, 102],
    [296, 302],
    [94, 100],
    [97, 101],
    [56, 62],
    [51, 54],
    [159, 161],
    [16, 19],
    [253, 256],
    [196, 201],
    [70, 76],
    [4, 10],
    [102, 107],
    [227, 230],
    [59, 63],
    [233, 234],
    [9, 13],
    [101, 105],
    [122, 128],
    [143, 147],
    [3, 5],
    [188, 190],
    [31, 35],
    [282, 285],
    [90, 95],
    [92, 99],
    [241, 244],
    [16, 18],
    [320, 322],
    [20, 25],
    [217, 219],
    [361, 367],
    [237, 240],
    [235, 236],
    [157, 161],
    [32, 33],
    [133, 138],
    [138, 143],
    [271, 278],
    [363, 367],
    [208, 211],
    [115, 118],
    [307, 314],
    [48, 51],
    [345, 348],
    [157, 163],
    [232, 234],
    [146, 149],
    [334, 340],
    [123, 124],
    [207, 208],
    [118, 120],
    [342, 343],
    [313, 317],
    [127, 131],
    [210, 217],
    [364, 366],
    [351, 354],
    [173, 178],
    [282, 285],
    [90, 92],
    [230, 236],
    [307, 312],
    [262, 264],
    [259, 262],
    [348, 350],
    [83, 84],
    [270, 272],
    [251, 254],
    [330, 334],
    [81, 83],
    [314, 317],
    [197, 200],
    [6, 13],
    [61, 67],
    [296, 299],
    [1, 5],
    [18, 21],
    [122, 125],
    [80, 81],
    [59, 61],
    [181, 182],
    [341, 344],
    [143, 146],
    [249, 251],
    [332, 334],
    [18, 19],
    [120, 126],
    [181, 184],
    [337, 339],
    [180, 182],
    [318, 320],
    [56, 63],
    [104, 106],
    [247, 252],
    [342, 343],
    [2, 5],
    [336, 341],
    [94, 97],
    [204, 211],
    [334, 337],
    [342, 349],
    [2, 5],
    [356, 359],
    [16, 23],
    [76, 78],
    [15, 19],
    [181, 184],
    [92, 98],
    [54, 58],
    [138, 145],
    [49, 55],
    [68, 74],
    [27, 30],
    [364, 369],
    [130, 137],
    [308, 314],
    [104, 108],
    [275, 281],
    [241, 243],
    [289, 293],
    [317, 322],
    [43, 49],
    [41, 43],
    [165, 172],
    [279, 285],
    [121, 128],
    [106, 108],
    [64, 70],
    [7, 13],
    [30, 32],
    [95, 98],
    [97, 103],
    [51, 57],
    [21, 28],
    [159, 163],
    [103, 106],
    [166, 168],
    [194, 197],
    [332, 334],
    [120, 126],
    [167, 169],
    [181, 182],
    [18, 20],
    [266, 269],
    [336, 338],
    [24, 26],
    [92, 94],
    [89, 92],
    [238, 240],
    [160, 164],
    [312, 314],
    [155, 161],
    [274, 277],
    [223, 228],
    [23, 28],
    [122, 129],
    [237, 240],
    [119, 125],
    [232, 234],
    [70, 72],
    [58, 65],
    [120, 121],
    [234, 241],
    [88, 91],
    [124, 128],
    [42, 49],
    [141, 147],
    [250, 253],
    [355, 362],
    [60, 62],
    [231, 234],
    [167, 169],
    [49, 50],
    [115, 120],
    [209, 212],
    [312, 318],
    [0, 3],
    [302, 305],
    [122, 123],
    [197, 198],
    [165, 171],
    [25, 28],
    [201, 203],
    [314, 316],
    [345, 347],
    [72, 79],
    [333, 339],
    [331, 336],
    [125, 131],
    [17, 19],
    [216, 218],
    [86, 91],
    [291, 297],
    [68, 75],
    [72, 78],
    [111, 117],
    [127, 130],
    [111, 112],
    [340, 342],
    [7, 13],
    [282, 284],
    [237, 240],
    [288, 291],
    [208, 210],
    [282, 288],
    [238, 241],
    [276, 282],
    [64, 66],
    [358, 360],
    [277, 283],
    [19, 21],
    [56, 62],
    [32, 35],
    [208, 214],
    [96, 99],
    [36, 42],
    [107, 108],
    [103, 108],
    [23, 30],
    [201, 208],
    [217, 223],
    [6, 7],
    [72, 75],
    [204, 207],
    [319, 324],
    [193, 196],
    [159, 161],
    [164, 166],
    [79, 81],
    [143, 144],
    [263, 265],
    [207, 209],
    [134, 135],
    [94, 96],
    [156, 157],
    [99, 103],
    [142, 144],
    [11, 15],
    [287, 288],
    [53, 56],
    [36, 38],
    [216, 217],
    [230, 236],
    [77, 78],
    [294, 299],
    [292, 294],
    [56, 63],
    [166, 169],
    [110, 112],
    [44, 47],
    [148, 151],
    [59, 61],
    [284, 287],
    [6, 9],
    [117, 119],
    [155, 156],
    [125, 128],
    [14, 17],
    [130, 134],
    [73, 75],
    [107, 112],
    [48, 50],
    [190, 193],
    [214, 220],
    [192, 198],
    [162, 168],
    [345, 350],
    [12, 15],
    [298, 303],
    [329, 331],
    [28, 32],
    [158, 161],
    [269, 271],
    [87, 90],
    [219, 222],
    [66, 68],
    [250, 251],
    [119, 125],
    [176, 181],
    [25, 27],
    [63, 65],
    [148, 149],
    [130, 131],
    [250, 253],
    [56, 58],
    [266, 268],
    [164, 167],
    [124, 126],
    [191, 194],
    [243, 246],
    [256, 257],
    [205, 207],
    [230, 231],
    [278, 284],
    [251, 255],
    [6, 11],
    [34, 39],
    [188, 195],
    [170, 177],
    [247, 252],
    [208, 211],
    [11, 18],
    [44, 46],
    [225, 231],
    [70, 76],
    [186, 189],
    [24, 30],
    [193, 196],
    [247, 248],
    [210, 212],
    [300, 302],
    [212, 217],
    [77, 80],
    [216, 218],
    [151, 154],
    [177, 182],
    [213, 214],
    [216, 219],
    [156, 159],
    [41, 43],
    [267, 269],
    [6, 12],
    [3, 5],
    [108, 115],
    [90, 93],
    [180, 182],
    [93, 97],
    [18, 20],
    [18, 21],
    [157, 164],
    [357, 360],
    [327, 334],
    [286, 292],
    [199, 202],
    [9, 12],
    [11, 14],
    [228, 230],
    [69, 71],
    [216, 218],
    [255, 256],
    [159, 161],
    [98, 99],
    [269, 275],
    [38, 45],
    [254, 261],
    [291, 297],
    [298, 301],
    [97, 103],
    [207, 213],
    [1, 4],
    [80, 81],
    [316, 317],
    [148, 151],
    [308, 314],
    [191, 198],
    [308, 311],
    [313, 316],
    [165, 168],
    [279, 281],
    [180, 183],
    [318, 321],
    [38, 40],
    [276, 279],
    [333, 335],
    [245, 247],
    [242, 244],
    [261, 268],
    [246, 251],
    [232, 237],
    [362, 363],
    [275, 281],
    [157, 162],
    [96, 103],
    [328, 331],
    [25, 26],
    [224, 228],
    [244, 250],
    [275, 278],
    [145, 148],
    [347, 350],
    [184, 186],
    [267, 270],
    [210, 212],
    [16, 23],
    [183, 186],
    [79, 85],
    [157, 163],
    [23, 26],
    [225, 230],
    [309, 316],
    [194, 201],
    [41, 43],
    [111, 114],
    [10, 13],
    [119, 126],
    [62, 69],
    [89, 92],
    [346, 348],
    [129, 132],
    [355, 358],
    [280, 283],
    [174, 180],
    [317, 320],
    [40, 45],
    [179, 183],
    [264, 266],
    [298, 304],
    [311, 317],
    [236, 239],
    [218, 221],
    [292, 299],
    [163, 166],
    [244, 246],
    [88, 92],
    [271, 277],
    [35, 42],
    [125, 128],
    [261, 264],
    [219, 222],
    [133, 136],
    [273, 274],
    [70, 71],
    [10, 13],
    [89, 95],
    [249, 252],
    [237, 242],
    [325, 329],
    [10, 13],
    [67, 70],
    [189, 192],
    [311, 314],
    [185, 188],
    [299, 300],
    [312, 313],
    [340, 343],
    [127, 132],
    [290, 293],
    [239, 242],
    [215, 218],
    [23, 26],
    [9, 14],
    [44, 47],
    [76, 78],
    [294, 297],
    [250, 253],
    [23, 25],
    [91, 98],
    [237, 239],
    [131, 138],
    [349, 351],
    [237, 243],
    [202, 205],
    [90, 92],
    [239, 245],
    [174, 176],
    [68, 70],
    [74, 76],
    [134, 137],
    [29, 34],
    [293, 299],
    [34, 36],
    [88, 92],
    [135, 137],
    [36, 40],
    [343, 350],
    [303, 309],
    [133, 136],
    [257, 260],
    [334, 337],
    [40, 46],
    [84, 86],
    [278, 285],
    [335, 340],
    [268, 273],
    [24, 27],
    [259, 262],
    [113, 118],
    [75, 78],
    [345, 349],
    [153, 160],
    [43, 45],
    [327, 330],
    [85, 91],
    [68, 69],
    [321, 324],
    [137, 138],
    [227, 230],
    [45, 52],
    [359, 360],
    [97, 98],
    [351, 354],
    [340, 347],
    [175, 178],
    [223, 230],
    [291, 293],
    [22, 25],
    [38, 39],
    [175, 178],
    [220, 223],
    [109, 111],
    [39, 42],
    [287, 289],
    [256, 257],
    [73, 75],
    [94, 95],
    [81, 84],
    [153, 155],
    [172, 174],
    [79, 81],
    [178, 181],
    [222, 225],
    [255, 258],
    [213, 215],
    [231, 234],
    [268, 270],
    [291, 294],
    [188, 193],
    [225, 230],
    [110, 112],
    [56, 58],
    [191, 194],
    [4, 10],
    [76, 78],
    [201, 208],
    [66, 69],
    [281, 283],
    [110, 112],
    [276, 283],
    [81, 84],
    [205, 206],
    [265, 267],
    [119, 121],
    [71, 74],
    [22, 28],
    [296, 298],
    [298, 301],
    [80, 82],
    [98, 102],
    [118, 119],
    [296, 302],
    [62, 69],
    [203, 206],
    [111, 118],
    [304, 311],
    [32, 38],
    [1, 2],
    [16, 20],
    [41, 43],
    [259, 261],
    [305, 307],
    [280, 285],
    [141, 144],
    [231, 235],
    [46, 48],
    [6, 13],
    [183, 186],
    [47, 48],
    [248, 250],
    [267, 270],
    [255, 261],
    [342, 343],
    [114, 117],
    [61, 63],
    [244, 250],
    [1, 7],
    [126, 132],
    [270, 273],
    [164, 166],
    [19, 22],
    [160, 163],
    [285, 287],
    [140, 143],
    [357, 361],
    [195, 198],
    [58, 64],
    [310, 317],
    [115, 118],
    [234, 236],
    [213, 216],
    [315, 321],
    [357, 360],
    [21, 26],
    [356, 363],
    [150, 153],
    [215, 218],
    [282, 288],
    [232, 238],
    [291, 293],
    [185, 190],
    [72, 78],
    [150, 157],
    [209, 210],
    [356, 359],
    [156, 163],
    [15, 18],
    [3, 5],
    [302, 303],
    [351, 353],
    [214, 217],
    [115, 122],
    [213, 215],
    [15, 20],
    [294, 300],
    [315, 318],
    [321, 323],
    [152, 155],
    [240, 243],
    [71, 75],
    [112, 114],
    [187, 194],
    [10, 13],
    [106, 113],
    [32, 38],
    [139, 146],
    [125, 127],
    [187, 189],
    [149, 152],
    [43, 45],
    [25, 32],
    [320, 321],
    [42, 44],
    [115, 116],
    [190, 192],
    [252, 255],
    [247, 250],
    [58, 59],
    [245, 252],
    [92, 97],
    [312, 315],
    [140, 142],
    [178, 181],
    [307, 310],
    [326, 329],
    [142, 148],
    [268, 271],
    [307, 312],
    [233, 235],
    [187, 192],
    [342, 343],
    [217, 219],
    [300, 303],
    [104, 108],
    [32, 38],
    [87, 89],
    [264, 268],
    [343, 344],
    [45, 49],
    [345, 351],
    [227, 233],
    [151, 155],
    [184, 187],
    [277, 280],
    [28, 35],
    [78, 84],
    [278, 281],
    [357, 360],
    [212, 218],
    [64, 67],
    [155, 157],
    [298, 302],
    [111, 114],
    [286, 287],
    [209, 216],
    [178, 182],
    [54, 56],
    [119, 121],
    [275, 282],
    [148, 149],
    [9, 15],
    [191, 192],
    [118, 121],
    [14, 21],
    [101, 104],
    [102, 109],
    [154, 156],
    [26, 29],
    [209, 210],
    [4, 10],
    [356, 358],
    [161, 164],
    [355, 360],
    [171, 177],
    [219, 223],
    [55, 57],
    [207, 210],
    [292, 294],
    [324, 329],
    [35, 36],
    [13, 20],
    [262, 269],
    [80, 81],
    [171, 174],
    [136, 141],
    [182, 184],
    [62, 68],
    [234, 239],
    [43, 45],
    [303, 310],
    [336, 338],
    [110, 116],
    [192, 199],
    [317, 324],
    [215, 222],
    [260, 262],
    [128, 133],
    [359, 363],
    [205, 207],
    [20, 22],
    [320, 322],
    [283, 286],
    [3, 4],
    [47, 54],
    [283, 285],
    [156, 163],
    [330, 334],
    [80, 87],
    [279, 283],
    [100, 106],
    [248, 251],
    [125, 129],
    [308, 315],
    [85, 87],
    [303, 308],
    [230, 232],
    [156, 158],
    [307, 312],
    [322, 323],
    [31, 33],
    [302, 305],
    [21, 26],
    [126, 129],
    [54, 59],
    [96, 99],
    [5, 8],
    [217, 221],
    [34, 40],
    [52, 53],
    [126, 132],
    [151, 154],
    [147, 153],
    [161, 163],
    [39, 42],
    [21, 24],
    [80, 85],
    [147, 150],
    [232, 235],
    [49, 54],
    [121, 126],
    [78, 80],
    [328, 331],
    [61, 65],
    [293, 296],
    [335, 336],
    [328, 330],
    [245, 247],
    [296, 302],
    [69, 72],
    [244, 247],
    [310, 312],
    [167, 173],
    [353, 358],
    [181, 187],
    [171, 175],
    [163, 169],
    [76, 82],
    [353, 355],
    [235, 238],
    [351, 357],
    [294, 301],
    [219, 223],
    [97, 99],
    [337, 339],
    [338, 344],
    [129, 132],
    [334, 338],
    [217, 218],
    [82, 85],
    [2, 4],
    [339, 345],
    [207, 211],
    [268, 271],
    [352, 354],
    [193, 196],
    [97, 103],
    [337, 340],
    [305, 308],
    [53, 58],
    [346, 348],
    [260, 263],
    [297, 298],
    [338, 344],
    [323, 327],
    [328, 331],
    [290, 296],
    [14, 19],
    [234, 237],
    [342, 347],
    [28, 34],
    [338, 340],
    [105, 111],
    [209, 212],
    [90, 93],
    [150, 153],
    [257, 260],
    [257, 261],
    [23, 27],
    [298, 301],
    [316, 322],
    [332, 335],
    [228, 232],
    [213, 215],
    [190, 192],
    [265, 271],
    [71, 74],
    [239, 242],
    [341, 346],
    [174, 175],
    [253, 256],
    [179, 181],
    [87, 93],
    [264, 269],
    [127, 134],
    [187, 190],
    [4, 6],
    [147, 150],
    [354, 356],
    [42, 43],
    [287, 292],
    [203, 208],
    [262, 264],
    [35, 38],
    [342, 348],
    [12, 19],
    [279, 282],
    [301, 307],
    [341, 347],
    [240, 247],
    [286, 289],
    [133, 135],
    [134, 139],
    [282, 289],
    [334, 341],
    [288, 291],
    [338, 339],
    [105, 107],
    [120, 123],
    [291, 293],
    [189, 193],
    [364, 366],
    [11, 17],
    [188, 191],
    [180, 186],
    [53, 54],
    [287, 293],
    [117, 120],
    [88, 91],
    [121, 123],
    [239, 242],
    [347, 350],
    [266, 269],
    [22, 29],
    [348, 350],
    [336, 339],
    [303, 309],
    [234, 236],
    [248, 250],
    [259, 260],
    [5, 8],
    [129, 135],
    [358, 360],
    [258, 262],
    [306, 309],
    [8, 15],
    [293, 296],
    [167, 170],
    [113, 118],
    [130, 137],
    [334, 335],
    [305, 306],
    [1, 8],
    [139, 144],
    [278, 283],
    [292, 295],
    [349, 350],
    [152, 155],
    [77, 78],
    [239, 246],
    [324, 327],
    [192, 194],
    [227, 229],
    [85, 87],
    [337, 339],
    [6, 9],
    [263, 266],
    [33, 36],
    [282, 285],
    [168, 171],
    [29, 32],
    [61, 68],
    [264, 266],
    [361, 363],
    [64, 67],
    [308, 311],
    [115, 121],
    [325, 328],
    [119, 126],
    [104, 109],
    [62, 65],
    [35, 36],
    [94, 100],
    [348, 351],
    [208, 210],
    [70, 72],
    [95, 101],
    [217, 221],
    [278, 281],
    [296, 303],
    [61, 67],
    [259, 262],
    [50, 56],
    [40, 43],
    [308, 309],
    [160, 166],
    [46, 49],
    [331, 337],
    [305, 308],
    [85, 90],
    [239, 242],
    [329, 335],
    [205, 208],
    [223, 226],
    [352, 355],
    [146, 149],
    [257, 264],
    [71, 73],
    [129, 135],
    [275, 281],
    [112, 118],
    [246, 248],
    [142, 145],
    [254, 257],
    [322, 325],
    [337, 339],
    [158, 163],
    [302, 303],
    [305, 307],
    [142, 144],
    [167, 168],
    [225, 231],
    [181, 187],
    [208, 209],
    [157, 163],
    [97, 104],
    [23, 25],
    [351, 358],
    [294, 297],
    [93, 95],
    [321, 325],
    [249, 251],
    [285, 287],
    [104, 107],
    [83, 85],
    [232, 234],
    [299, 301],
    [175, 176],
    [112, 115],
    [311, 317],
    [94, 98],
    [149, 155],
    [297, 303],
    [338, 343],
    [80, 82],
    [297, 300],
    [330, 332],
    [222, 225],
    [252, 258],
    [261, 264],
    [243, 246],
    [101, 106],
    [323, 326],
    [116, 117],
    [271, 273],
    [304, 307],
    [12, 14],
    [0, 5],
    [7, 11],
    [292, 294],
    [20, 23],
    [283, 284],
    [234, 235],
    [346, 352],
    [239, 241],
    [62, 64],
    [48, 50],
    [189, 190],
    [132, 138],
    [244, 246],
    [289, 296],
    [177, 180],
    [179, 181],
    [207, 210],
    [233, 240],
    [357, 362],
    [248, 251],
    [107, 111],
    [182, 186],
    [302, 304],
    [296, 302],
    [97, 104],
    [212, 215],
    [185, 186],
    [100, 103],
    [171, 177],
    [250, 256],
    [259, 263],
    [298, 305],
    [293, 294],
    [216, 219],
    [266, 272],
    [26, 28],
    [333, 336],
    [152, 155],
    [181, 184],
    [330, 336],
    [114, 117],
    [180, 182],
    [266, 268],
    [173, 175],
    [4, 7],
    [291, 297],
    [93, 96],
    [196, 199],
    [131, 133],
    [30, 32],
    [131, 137],
    [328, 331],
    [202, 208],
    [262, 267],
    [119, 121],
    [66, 68],
    [84, 87],
    [360, 365],
    [346, 349],
    [123, 130],
    [355, 358],
    [353, 355],
    [335, 336],
    [93, 95],
    [350, 352],
    [257, 259],
    [201, 207],
    [36, 42],
    [60, 62],
    [18, 20],
    [97, 101],
    [118, 120],
    [59, 61],
    [181, 183],
    [90, 93],
    [48, 51],
    [329, 330],
    [197, 199],
    [40, 42],
    [8, 14],
    [184, 186],
    [109, 110],
    [183, 186],
    [1, 4],
    [179, 182],
    [183, 189],
    [135, 142],
    [31, 33],
    [208, 213],
    [46, 53],
    [218, 225],
    [359, 362],
    [75, 82],
    [270, 273],
    [198, 200],
    [183, 189],
    [71, 77],
    [298, 301],
    [283, 286],
    [160, 163],
    [104, 106],
    [318, 319],
    [113, 118],
    [23, 27],
    [233, 239],
    [351, 357],
    [338, 344],
    [200, 204],
    [21, 27],
    [348, 354],
    [255, 258],
    [57, 63],
    [42, 43],
    [31, 33],
    [317, 319],
    [245, 247],
    [119, 121],
    [243, 246],
    [257, 262],
    [148, 151],
    [71, 72],
    [97, 102],
    [51, 58],
    [81, 84],
    [185, 187],
    [116, 122],
    [329, 331],
    [73, 80],
    [38, 41],
    [284, 285],
    [144, 151],
    [324, 327],
    [263, 269],
    [8, 10],
    [2, 5],
    [92, 94],
    [66, 72],
    [190, 193],
    [42, 43],
    [218, 221],
    [245, 247],
    [63, 66],
    [339, 342],
    [181, 186],
    [77, 83],
    [335, 340],
    [4, 5],
    [87, 89],
    [126, 129],
    [334, 340],
    [21, 24],
    [60, 62],
    [185, 191],
    [205, 207],
    [264, 267],
    [77, 82],
    [341, 344],
    [139, 140],
    [113, 116],
    [284, 290],
    [333, 335],
    [314, 320],
    [80, 87],
    [96, 103],
    [359, 365],
    [45, 48],
    [69, 71],
    [341, 344],
    [207, 209],
    [252, 254],
    [119, 122],
    [123, 126],
    [139, 145],
    [34, 38],
    [314, 317],
    [50, 53],
    [316, 318],
    [235, 240],
    [193, 200],
    [229, 230],
    [329, 335],
    [48, 55],
    [257, 261],
    [193, 198],
    [303, 308],
    [116, 121],
    [30, 32],
    [121, 128],
    [220, 222],
    [94, 96],
    [148, 151],
    [75, 80],
    [43, 50],
    [255, 260],
    [13, 19],
    [323, 326],
    [148, 149],
    [232, 234],
    [343, 346],
    [125, 128],
    [220, 221],
    [281, 288],
    [24, 27],
    [304, 305],
    [126, 128],
    [254, 260],
    [159, 165],
    [64, 66],
    [58, 64],
    [32, 38],
    [35, 41],
    [92, 93],
    [32, 37],
    [347, 349],
    [120, 123],
    [175, 182],
    [141, 142],
    [172, 175],
    [61, 67],
    [173, 175],
    [228, 235],
    [70, 72],
    [51, 52],
    [39, 43],
    [329, 332],
    [341, 343],
    [268, 274],
    [132, 134],
    [230, 232],
    [89, 91],
    [208, 212],
    [155, 157],
    [274, 277],
    [67, 68],
    [227, 233],
    [186, 188],
    [321, 324],
    [229, 233],
    [9, 15],
    [224, 227],
    [132, 135],
    [210, 213]
]